0.100|k4b;3798031666660;0;32;-1;-1;1
0.200|k4b;3798032666660;0;32;-1;-1;1
0.300|k4b;3798034000000;0;32;-1;-1;1
0.400|k4b;3798035333330;0;32;-1;-1;1
0.500|k4b;3798036000000;0;32;-1;-1;1
0.600|k4b;3798037333330;0;32;-1;-1;1
0.700|k4b;3798038666660;0;32;-1;-1;1
0.800|k4b;3798040000000;0;32;-1;-1;1
0.900|k4b;3798041333330;0;32;-1;-1;1
1.000|k4b;3798042000000;0;32;-1;-1;1
1.100|k4b;3798043333330;0;32;-1;-1;1
1.200|k4b;3798044666660;0;32;-1;-1;1
1.300|k4b;3798045333330;0;32;-1;-1;1
1.400|k4b;3798046333330;0;32;-1;-1;1
1.500|k4b;3798047666660;0;32;-1;-1;1
1.600|k4b;3798049000000;0;32;-1;-1;1
1.700|k4b;3798049666660;0;32;-1;-1;1
1.800|k4b;3798051000000;0;32;-1;-1;1
1.900|k4b;3798052333330;0;32;-1;-1;1
2.000|k4b;3798053000000;0;32;-1;-1;1
2.100|k4b;3798054333330;0;32;-1;-1;1
2.200|k4b;3798055666660;0;32;-1;-1;1
2.300|k4b;3798056333330;0;32;-1;-1;1
2.400|k4b;3798057666660;0;32;-1;-1;1
2.500|k4b;3798058999880;0;32;-1;-1;1
2.600|k4b;3798059666660;0;32;-1;-1;1
2.700|k4b;3798061000000;0;32;-1;-1;1
2.800|k4b;3798062000000;0;32;-1;-1;1
2.900|k4b;3798063333330;0;32;-1;-1;1
2.998|k4b;3798064000000;0;32;-1;-1;1
3.098|k4b;3798065333330;0;32;-1;-1;1
3.198|k4b;3798066000000;0;32;-1;-1;1
3.298|k4b;3798067333330;0;32;-1;-1;1
3.398|k4b;3798068666660;0;32;-1;-1;1
3.498|k4b;3798069333330;0;32;-1;-1;1
3.598|k4b;3798070666660;0;32;-1;-1;1
3.698|k4b;3798071333330;0;32;-1;-1;1
3.798|k4b;3798072666660;0;32;-1;-1;1
3.898|k4b;3798073333330;0;32;-1;-1;1
3.998|k4b;3798074666660;0;32;-1;-1;1
4.098|k4b;3798075333330;0;32;-1;-1;1
4.198|k4b;3798077333330;0;32;-1;-1;1
4.298|k4b;3798078000000;0;32;-1;-1;1
4.398|k4b;3798079333330;0;32;-1;-1;1
4.498|k4b;3798080000000;0;32;-1;-1;1
4.598|k4b;3798082000000;0;32;-1;-1;1
4.698|k4b;3798082666660;0;32;-1;-1;1
4.798|k4b;3798084000000;0;32;-1;-1;1
4.898|k4b;3798084666660;0;32;-1;-1;1
4.998|k4b;3798086000000;0;32;-1;-1;1
5.098|k4b;3798086666660;0;32;-1;-1;1
5.198|k4b;3798088000000;0;32;-1;-1;1
5.298|k4b;3798089333330;0;32;-1;-1;1
5.398|k4b;3798090000000;0;32;-1;-1;1
5.498|k4b;3798091333330;0;32;-1;-1;1
5.598|k4b;3798092666660;0;32;-1;-1;1
5.698|k4b;3798093333330;0;32;-1;-1;1
5.798|k4b;3798094666660;0;32;-1;-1;1
5.898|k4b;3798095333330;0;32;-1;-1;1
5.998|k4b;3798096666660;0;32;-1;-1;1
6.098|k4b;3798098000000;0;32;-1;-1;1
6.198|k4b;3798099333330;0;32;-1;-1;1
6.298|k4b;3798100000000;0;32;-1;-1;1
6.398|k4b;3798101333330;0;32;-1;-1;1
6.498|k4b;3798103333330;0;32;-1;-1;1
6.598|k4b;3798104000000;0;32;-1;-1;1
6.698|k4b;3798105333330;0;32;-1;-1;1
6.798|k4b;3798106666660;0;32;-1;-1;1
6.898|k4b;3798108000000;0;32;-1;-1;1
6.998|k4b;3798109333330;0;32;-1;-1;1
7.098|k4b;3798109999880;0;32;-1;-1;1
7.198|k4b;3798111333330;0;32;-1;-1;1
7.298|k4b;3798112000000;0;32;-1;-1;1
7.398|k4b;3798113333330;0;32;-1;-1;1
7.498|k4b;3798115000000;0;32;-1;-1;1
7.598|k4b;3798115666660;0;32;-1;-1;1
7.698|k4b;3798116333330;0;32;-1;-1;1
7.798|k4b;3798117666660;0;32;-1;-1;1
7.898|k4b;3798119000000;0;32;-1;-1;1
7.998|k4b;3798120333330;0;32;-1;-1;1
8.098|k4b;3798121333330;0;32;-1;-1;1
8.198|k4b;3798122666660;0;32;-1;-1;1
8.298|k4b;3798124000000;0;32;-1;-1;1
8.398|k4b;3798124666550;0;32;-1;-1;1
8.498|k4b;3798126000000;0;32;-1;-1;1
8.598|k4b;3798126666660;0;32;-1;-1;1
8.698|k4b;3798128000000;0;32;-1;-1;1
8.798|k4b;3798128666660;0;32;-1;-1;1
8.898|k4b;3798130000000;0;32;-1;-1;1
8.998|k4b;3798130666660;0;32;-1;-1;1
9.098|k4b;3798132000000;0;32;-1;-1;1
9.198|k4b;3798133333330;0;32;-1;-1;1
9.298|k4b;3798134666660;0;32;-1;-1;1
9.398|k4b;3798135333330;0;32;-1;-1;1
9.498|k4b;3798136666660;0;32;-1;-1;1
9.598|k4b;3798138000000;0;32;-1;-1;1
9.698|k4b;3798138666660;0;32;-1;-1;1
9.798|k4b;3798140000000;0;32;-1;-1;1
9.898|k4b;3798140666660;0;32;-1;-1;1
9.998|k4b;3798142000000;0;32;-1;-1;1
10.098|k4b;3798143333330;0;32;-1;-1;1
10.198|k4b;3798144000000;0;32;-1;-1;1
10.298|k4b;3798145333330;0;32;-1;-1;1
10.398|k4b;3798146000000;0;32;-1;-1;1
10.498|k4b;3798147333330;0;32;-1;-1;1
10.598|k4b;3798148000000;0;32;-1;-1;1
10.698|k4b;3798149333330;0;32;-1;-1;1
10.798|k4b;3798150000000;0;32;-1;-1;1
10.898|k4b;3798151333330;0;32;-1;-1;1
10.998|k4b;3798152666660;0;32;-1;-1;1
11.098|k4b;3798153666550;0;32;-1;-1;1
11.198|k4b;3798154333330;0;32;-1;-1;1
11.298|k4b;3798155666660;0;32;-1;-1;1
11.398|k4b;3798157000000;0;32;-1;-1;1
11.498|k4b;3798157666660;0;32;-1;-1;1
11.598|k4b;3798159000000;0;32;-1;-1;1
11.698|k4b;3798160333330;0;32;-1;-1;1
11.798|k4b;3798160999880;0;32;-1;-1;1
11.898|k4b;3798162333330;0;32;-1;-1;1
11.998|k4b;3798163666660;0;32;-1;-1;1
12.098|k4b;3798164333330;0;32;-1;-1;1
12.198|k4b;3798165666660;0;32;-1;-1;1
12.298|k4b;3798167000000;0;32;-1;-1;1
12.398|k4b;3798167666660;0;32;-1;-1;1
12.498|k4b;3798169000000;0;32;-1;-1;1
12.598|k4b;3798170333330;0;32;-1;-1;1
12.698|k4b;3798171333330;0;32;-1;-1;1
12.798|k4b;3798172666660;0;32;-1;-1;1
12.898|k4b;3798174000000;0;32;-1;-1;1
12.998|k4b;3798174666660;0;32;-1;-1;1
13.098|k4b;3798176000000;0;32;-1;-1;1
13.198|k4b;3798176666660;0;32;-1;-1;1
13.298|k4b;3798178000000;0;32;-1;-1;1
13.398|k4b;3798179333330;0;32;-1;-1;1
13.498|k4b;3798180666660;0;32;-1;-1;1
13.598|k4b;3798182000000;0;32;-1;-1;1
13.698|k4b;3798182666660;0;32;-1;-1;1
13.798|k4b;3798184000000;0;32;-1;-1;1
13.898|k4b;3798185333330;0;32;-1;-1;1
13.998|k4b;3798186000000;0;32;-1;-1;1
14.098|k4b;3798187333330;0;32;-1;-1;1
14.198|k4b;3798188666660;0;32;-1;-1;1
14.298|k4b;3798189333330;0;32;-1;-1;1
14.398|k4b;3798190666660;0;32;-1;-1;1
14.498|k4b;3798191333330;0;32;-1;-1;1
14.598|k4b;3798192666660;0;32;-1;-1;1
14.698|k4b;3798194000000;0;32;-1;-1;1
14.798|k4b;3798195333330;0;32;-1;-1;1
14.898|k4b;3798196000000;0;32;-1;-1;1
14.998|k4b;3798197333330;0;32;-1;-1;1
15.098|k4b;3798198666660;0;32;-1;-1;1
15.198|k4b;3798199333330;0;32;-1;-1;1
15.298|k4b;3798200666660;0;32;-1;-1;1
15.398|k4b;3798202000000;0;32;-1;-1;1
15.498|k4b;3798202666660;0;32;-1;-1;1
15.598|k4b;3798204000000;0;32;-1;-1;1
15.698|k4b;3798204666550;0;32;-1;-1;1
15.798|k4b;3798206000000;0;32;-1;-1;1
15.998|k4b;3798207666660;0;32;-1;-1;1
16.098|k4b;3798209000000;0;32;-1;-1;1
16.198|k4b;3798210333330;0;32;-1;-1;1
16.298|k4b;3798211666660;0;32;-1;-1;1
16.398|k4b;3798213000000;0;32;-1;-1;1
16.498|k4b;3798214333330;0;32;-1;-1;1
16.598|k4b;3798215666660;0;32;-1;-1;1
16.698|k4b;3798217000000;0;32;-1;-1;1
16.798|k4b;3798218333330;0;32;-1;-1;1
16.898|k4b;3798219333220;0;32;-1;-1;1
16.998|k4b;3798220000000;0;32;-1;-1;1
17.098|k4b;3798221333330;0;32;-1;-1;1
17.198|k4b;3798222666660;0;32;-1;-1;1
17.298|k4b;3798224000000;0;32;-1;-1;1
17.398|k4b;3798224666660;0;32;-1;-1;1
17.498|k4b;3798226000000;0;32;-1;-1;1
17.598|k4b;3798226666660;0;32;-1;-1;1
17.698|k4b;3798228333330;0;32;-1;-1;1
17.798|k4b;3798229666660;0;32;-1;-1;1
17.898|k4b;3798230333330;0;32;-1;-1;1
17.998|k4b;3798231666660;0;32;-1;-1;1
18.098|k4b;3798232333330;0;32;-1;-1;1
18.198|k4b;3798233666660;0;32;-1;-1;1
18.298|k4b;3798235000000;0;32;-1;-1;1
18.398|k4b;3798235666660;0;32;-1;-1;1
18.498|k4b;3798237000000;0;32;-1;-1;1
18.598|k4b;3798238333330;0;32;-1;-1;1
18.698|k4b;3798239000000;0;32;-1;-1;1
18.798|k4b;3798240333330;0;32;-1;-1;1
18.898|k4b;3798241666660;0;32;-1;-1;1
18.998|k4b;3798243000000;0;32;-1;-1;1
19.098|k4b;3798244333330;0;32;-1;-1;1
19.198|k4b;3798245333330;0;32;-1;-1;1
19.298|k4b;3798246666660;0;32;-1;-1;1
19.398|k4b;3798248000000;0;32;-1;-1;1
19.498|k4b;3798249333330;0;32;-1;-1;1
19.598|k4b;3798250000000;0;32;-1;-1;1
19.698|k4b;3798251333330;0;32;-1;-1;1
19.798|k4b;3798252666660;0;32;-1;-1;1
19.898|k4b;3798253333330;0;32;-1;-1;1
19.998|k4b;3798254666660;0;32;-1;-1;1
20.098|k4b;3798256000000;0;32;-1;-1;1
20.198|k4b;3798257333330;0;32;-1;-1;1
20.298|k4b;3798258000000;0;32;-1;-1;1
20.398|k4b;3798259333330;0;32;-1;-1;1
20.498|k4b;3798260000000;0;32;-1;-1;1
20.598|k4b;3798261333330;0;32;-1;-1;1
20.698|k4b;3798262666660;0;32;-1;-1;1
20.798|k4b;3798263333330;0;32;-1;-1;1
20.898|k4b;3798264666660;0;32;-1;-1;1
20.998|k4b;3798266000000;0;32;-1;-1;1
21.098|k4b;3798266666660;0;32;-1;-1;1
21.198|k4b;3798267666660;0;32;-1;-1;1
21.298|k4b;3798269000000;0;32;-1;-1;1
21.398|k4b;3798270333330;0;32;-1;-1;1
21.498|k4b;3798271666660;0;32;-1;-1;1
21.598|k4b;3798273000000;0;32;-1;-1;1
21.698|k4b;3798273666660;0;32;-1;-1;1
21.798|k4b;3798275000000;0;32;-1;-1;1
21.898|k4b;3798276333330;0;32;-1;-1;1
21.998|k4b;3798277000000;0;32;-1;-1;1
22.098|k4b;3798278333330;0;32;-1;-1;1
22.198|k4b;3798279666660;0;32;-1;-1;1
22.298|k4b;3798281000000;0;32;-1;-1;1
22.398|k4b;3798281666660;0;32;-1;-1;1
22.498|k4b;3798283000000;0;32;-1;-1;1
22.598|k4b;3798284333330;0;32;-1;-1;1
22.698|k4b;3798285000000;0;32;-1;-1;1
22.798|k4b;3798286333330;0;32;-1;-1;1
22.898|k4b;3798287666660;0;32;-1;-1;1
22.998|k4b;3798288333330;0;32;-1;-1;1
23.098|k4b;3798289666660;0;32;-1;-1;1
23.198|k4b;3798291000000;0;32;-1;-1;1
23.298|k4b;3798291666660;0;32;-1;-1;1
23.398|k4b;3798293000000;0;32;-1;-1;1
23.498|k4b;3798294333330;0;32;-1;-1;1
23.598|k4b;3798295000000;0;32;-1;-1;1
23.698|k4b;3798296333330;0;32;-1;-1;1
23.798|k4b;3798297666660;0;32;-1;-1;1
23.898|k4b;3798298333330;0;32;-1;-1;1
23.998|k4b;3798299666660;0;32;-1;-1;1
24.098|k4b;3798301000000;0;32;-1;-1;1
24.198|k4b;3798301666660;0;32;-1;-1;1
24.298|k4b;3798303333330;0;32;-1;-1;1
24.398|k4b;3798304000000;0;32;-1;-1;1
24.498|k4b;3798305333330;0;32;-1;-1;1
24.598|k4b;3798306666550;0;32;-1;-1;1
24.698|k4b;3798307333330;0;32;-1;-1;1
24.798|k4b;3798308666660;0;32;-1;-1;1
24.898|k4b;3798310000000;0;32;-1;-1;1
24.998|k4b;3798310666660;0;32;-1;-1;1
25.098|k4b;3798312000000;0;32;-1;-1;1
25.198|k4b;3798312666660;0;32;-1;-1;1
25.298|k4b;3798314000000;0;32;-1;-1;1
25.398|k4b;3798315333330;0;32;-1;-1;1
25.498|k4b;3798316666660;0;32;-1;-1;1
25.598|k4b;3798317333330;0;32;-1;-1;1
25.698|k4b;3798318666660;0;32;-1;-1;1
25.798|k4b;3798320333330;0;32;-1;-1;1
25.898|k4b;3798321000000;0;32;-1;-1;1
25.998|k4b;3798322333330;0;32;-1;-1;1
26.098|k4b;3798323666660;0;32;-1;-1;1
26.198|k4b;3798324333330;0;32;-1;-1;1
26.298|k4b;3798325666660;0;32;-1;-1;1
26.398|k4b;3798327000000;0;32;-1;-1;1
26.498|k4b;3798328333330;0;32;-1;-1;1
26.598|k4b;3798329000000;0;32;-1;-1;1
26.698|k4b;3798330333330;0;32;-1;-1;1
26.798|k4b;3798331000000;0;32;-1;-1;1
26.898|k4b;3798332333330;0;32;-1;-1;1
26.998|k4b;3798333666660;0;32;-1;-1;1
27.098|k4b;3798334333330;0;32;-1;-1;1
27.198|k4b;3798335666660;0;32;-1;-1;1
27.298|k4b;3798337000000;0;32;-1;-1;1
27.398|k4b;3798338333330;0;32;-1;-1;1
27.498|k4b;3798339000000;0;32;-1;-1;1
27.598|k4b;3798340333330;0;32;-1;-1;1
27.698|k4b;3798341666660;0;32;-1;-1;1
27.798|k4b;3798342333330;0;32;-1;-1;1
27.898|k4b;3798343666660;0;32;-1;-1;1
27.998|k4b;3798345000000;0;32;-1;-1;1
28.098|k4b;3798345666660;0;32;-1;-1;1
28.198|k4b;3798347333330;0;32;-1;-1;1
28.298|k4b;3798348000000;0;32;-1;-1;1
28.398|k4b;3798349333330;0;32;-1;-1;1
28.498|k4b;3798350000000;0;32;-1;-1;1
28.598|k4b;3798351333330;0;32;-1;-1;1
28.698|k4b;3798352666660;0;32;-1;-1;1
28.798|k4b;3798353333330;0;32;-1;-1;1
28.898|k4b;3798354666660;0;32;-1;-1;1
28.998|k4b;3798356000000;0;32;-1;-1;1
29.098|k4b;3798356666660;0;32;-1;-1;1
29.198|k4b;3798358000000;0;32;-1;-1;1
29.298|k4b;3798359333330;0;32;-1;-1;1
29.398|k4b;3798360000000;0;32;-1;-1;1
29.498|k4b;3798361333330;0;32;-1;-1;1
29.598|k4b;3798362666660;0;32;-1;-1;1
29.698|k4b;3798364000000;0;32;-1;-1;1
29.798|k4b;3798364666660;0;32;-1;-1;1
29.898|k4b;3798366000000;0;32;-1;-1;1
29.998|k4b;3798366666660;0;32;-1;-1;1
30.098|k4b;3798368000000;0;32;-1;-1;1
30.198|k4b;3798369333330;0;32;-1;-1;1
30.298|k4b;3798370666660;0;32;-1;-1;1
30.398|k4b;3798371333330;0;32;-1;-1;1
30.498|k4b;3798372666660;0;32;-1;-1;1
30.598|k4b;3798374000000;0;32;-1;-1;1
30.698|k4b;3798374666660;0;32;-1;-1;1
30.798|k4b;3798376000000;0;32;-1;-1;1
30.898|k4b;3798376666660;0;32;-1;-1;1
30.998|k4b;3798378000000;0;32;-1;-1;1
31.098|k4b;3798379333330;0;32;-1;-1;1
31.198|k4b;3798380000000;0;32;-1;-1;1
31.298|k4b;3798381333330;0;32;-1;-1;1
31.398|k4b;3798382666660;0;32;-1;-1;1
31.498|k4b;3798383333330;0;32;-1;-1;1
31.598|k4b;3798384666660;0;32;-1;-1;1
31.698|k4b;3798386000000;0;32;-1;-1;1
31.798|k4b;3798386666550;0;32;-1;-1;1
31.898|k4b;3798388000000;0;32;-1;-1;1
31.998|k4b;3798389333330;0;32;-1;-1;1
32.098|k4b;3798391333330;0;32;-1;-1;1
32.174|k4b;3798393333330;0;32;-1;-1;1
32.272|k4b;3798393666660;0;32;-1;-1;1
32.344|k4b;3798394333330;0;32;-1;-1;1
32.444|k4b;3798395666660;0;32;-1;-1;1
32.518|k4b;3798396333330;0;32;-1;-1;1
32.614|k4b;3798397666660;0;32;-1;-1;1
32.684|k4b;3798398333330;0;32;-1;-1;1
32.784|k4b;3798399000000;0;32;-1;-1;1
32.854|k4b;3798399666660;0;32;-1;-1;1
32.954|k4b;3798401000000;0;32;-1;-1;1
33.054|k4b;3798401666660;0;32;-1;-1;1
33.154|k4b;3798402333330;0;32;-1;-1;1
33.254|k4b;3798403666660;0;32;-1;-1;1
33.354|k4b;3798404333330;0;32;-1;-1;1
33.423|k4b;3798406000000;0;32;-1;-1;1
33.520|k4b;3798406666660;0;32;-1;-1;1
33.591|k4b;3798407333330;0;32;-1;-1;1
33.686|k4b;3798408666660;0;32;-1;-1;1
33.755|k4b;3798409333330;0;32;-1;-1;1
33.855|k4b;3798410000000;0;32;-1;-1;1
33.955|k4b;3798410666660;0;32;-1;-1;1
34.055|k4b;3798412000000;0;32;-1;-1;1
34.131|k4b;3798412666660;0;32;-1;-1;1
34.230|k4b;3798414000000;0;32;-1;-1;1
34.301|k4b;3798414666660;0;32;-1;-1;1
34.465|k4b;3798416000000;0;32;-1;-1;1
34.561|k4b;3798417333330;0;32;-1;-1;1
34.630|k4b;3798418000000;0;32;-1;-1;1
34.789|k4b;3798419333330;0;32;-1;-1;1
34.884|k4b;3798420333330;0;32;-1;-1;1
34.954|k4b;3798421000000;0;32;-1;-1;1
35.054|k4b;3798422333330;0;32;-1;-1;1
35.128|k4b;3798423000000;0;32;-1;-1;1
35.228|k4b;3798423666660;0;32;-1;-1;1
35.298|k4b;3798425000000;0;32;-1;-1;1
35.394|k4b;3798425666660;0;32;-1;-1;1
35.467|k4b;3798426333330;0;32;-1;-1;1
35.561|k4b;3798427666660;0;32;-1;-1;1
35.630|k4b;3798428333330;0;32;-1;-1;1
35.728|k4b;3798429000000;0;32;-1;-1;1
35.800|k4b;3798429666660;0;32;-1;-1;1
35.895|k4b;3798431000000;0;32;-1;-1;1
35.968|k4b;3798431666660;0;32;-1;-1;1
36.062|k4b;3798432333330;0;32;-1;-1;1
36.132|k4b;3798433000000;0;32;-1;-1;1
36.229|k4b;3798434333330;0;32;-1;-1;1
36.299|k4b;3798435000000;0;32;-1;-1;1
36.396|k4b;3798435666660;0;32;-1;-1;1
36.468|k4b;3798436333330;0;32;-1;-1;1
36.563|k4b;3798437666550;0;32;-1;-1;1
36.637|k4b;3798438333330;0;32;-1;-1;1
36.732|k4b;3798439000000;0;32;-1;-1;1
36.806|k4b;3798439666660;0;32;-1;-1;1
36.904|k4b;3798440666660;0;32;-1;-1;1
37.004|k4b;3798441333330;0;32;-1;-1;1
37.104|k4b;3798442666660;0;32;-1;-1;1
37.172|k4b;3798444000000;0;32;-1;-1;1
37.269|k4b;3798444999880;0;32;-1;-1;1
37.338|k4b;3798445666660;0;32;-1;-1;1
37.438|k4b;3798446333330;0;32;-1;-1;1
37.507|k4b;3798447000000;0;32;-1;-1;1
37.669|k4b;3798448666660;0;32;-1;-1;1
37.767|k4b;3798449333330;0;32;-1;-1;1
37.836|k4b;3798450333330;0;32;-1;-1;1
37.936|k4b;3798451666660;0;32;-1;-1;1
38.004|k4b;3798452333220;0;32;-1;-1;1
38.100|k4b;3798453000000;0;32;-1;-1;1
38.172|k4b;3798453666660;0;32;-1;-1;1
38.272|k4b;3798455000000;0;32;-1;-1;1
38.365|k4b;3798455666660;0;32;-1;-1;1
38.465|k4b;3798456333330;0;32;-1;-1;1
38.553|k4b;3798457666660;0;32;-1;-1;1
38.653|k4b;3798458333330;0;32;-1;-1;1
38.730|k4b;3798459666660;0;32;-1;-1;1
38.826|k4b;3798461000000;0;32;-1;-1;1
38.896|k4b;3798461666660;0;32;-1;-1;1
38.994|k4b;3798462333330;0;32;-1;-1;1
39.063|k4b;3798463000000;0;32;-1;-1;1
39.159|k4b;3798464333330;0;32;-1;-1;1
39.231|k4b;3798465000000;0;32;-1;-1;1
39.331|k4b;3798465666660;0;32;-1;-1;1
39.403|k4b;3798466333330;0;32;-1;-1;1
39.567|k4b;3798467666660;0;32;-1;-1;1
39.667|k4b;3798469000000;0;32;-1;-1;1
39.767|k4b;3798469666660;0;32;-1;-1;1
39.867|k4b;3798471000000;0;32;-1;-1;1
39.949|k4b;3798471666660;0;32;-1;-1;1
40.049|k4b;3798473000000;0;32;-1;-1;1
40.133|k4b;3798473666660;0;32;-1;-1;1
40.229|k4b;3798475000000;0;32;-1;-1;1
40.299|k4b;3798475666660;0;32;-1;-1;1
40.399|k4b;3798476333330;0;32;-1;-1;1
40.476|k4b;3798477333330;0;32;-1;-1;1
40.576|k4b;3798478666660;0;32;-1;-1;1
40.657|k4b;3798479333330;0;32;-1;-1;1
40.754|k4b;3798480000000;0;32;-1;-1;1
40.823|k4b;3798481333220;0;32;-1;-1;1
40.923|k4b;3798482000000;0;32;-1;-1;1
41.023|k4b;3798482666660;0;32;-1;-1;1
41.123|k4b;3798484000000;0;32;-1;-1;1
41.223|k4b;3798484666660;0;32;-1;-1;1
41.323|k4b;3798486000000;0;32;-1;-1;1
41.393|k4b;3798487333330;0;32;-1;-1;1
41.493|k4b;3798488666550;0;32;-1;-1;1
41.593|k4b;3798489333330;0;32;-1;-1;1
41.693|k4b;3798490000000;0;32;-1;-1;1
41.762|k4b;3798491333330;0;32;-1;-1;1
41.862|k4b;3798492666660;0;32;-1;-1;1
41.933|k4b;3798493333330;0;32;-1;-1;1
42.030|k4b;3798494000000;0;32;-1;-1;1
42.100|k4b;3798494666660;0;32;-1;-1;1
42.200|k4b;3798495999880;0;32;-1;-1;1
42.300|k4b;3798496666660;0;32;-1;-1;1
42.400|k4b;3798498000000;0;32;-1;-1;1
42.469|k4b;3798498666660;0;32;-1;-1;1
42.569|k4b;3798500000000;0;32;-1;-1;1
42.638|k4b;3798500666660;0;32;-1;-1;1
42.736|k4b;3798502000000;0;32;-1;-1;1
42.807|k4b;3798502666660;0;32;-1;-1;1
42.906|k4b;3798503333330;0;32;-1;-1;1
43.006|k4b;3798504000000;0;32;-1;-1;1
43.104|k4b;3798505333330;0;32;-1;-1;1
43.177|k4b;3798506000000;0;32;-1;-1;1
43.277|k4b;3798507333330;0;32;-1;-1;1
43.349|k4b;3798508000000;0;32;-1;-1;1
43.448|k4b;3798508666660;0;32;-1;-1;1
43.527|k4b;3798509333330;0;32;-1;-1;1
43.623|k4b;3798510666660;0;32;-1;-1;1
43.723|k4b;3798511333330;0;32;-1;-1;1
43.823|k4b;3798512666660;0;32;-1;-1;1
43.893|k4b;3798513333330;0;32;-1;-1;1
43.993|k4b;3798514666660;0;32;-1;-1;1
44.093|k4b;3798515333330;0;32;-1;-1;1
44.193|k4b;3798516666660;0;32;-1;-1;1
44.293|k4b;3798517333330;0;32;-1;-1;1
44.393|k4b;3798518666660;0;32;-1;-1;1
44.493|k4b;3798520000000;0;32;-1;-1;1
44.593|k4b;3798520666660;0;32;-1;-1;1
44.664|k4b;3798522000000;0;32;-1;-1;1
44.764|k4b;3798523333330;0;32;-1;-1;1
44.857|k4b;3798524000000;0;32;-1;-1;1
44.957|k4b;3798525333330;0;32;-1;-1;1
45.036|k4b;3798526000000;0;32;-1;-1;1
45.136|k4b;3798527666660;0;32;-1;-1;1
45.224|k4b;3798528333330;0;32;-1;-1;1
45.324|k4b;3798529666660;0;32;-1;-1;1
45.414|k4b;3798530333330;0;32;-1;-1;1
45.514|k4b;3798531666660;0;32;-1;-1;1
45.591|k4b;3798532333220;0;32;-1;-1;1
45.691|k4b;3798533666660;0;32;-1;-1;1
45.768|k4b;3798534333330;0;32;-1;-1;1
45.867|k4b;3798535000000;0;32;-1;-1;1
45.941|k4b;3798535666660;0;32;-1;-1;1
46.041|k4b;3798537000000;0;32;-1;-1;1
46.126|k4b;3798537666660;0;32;-1;-1;1
46.226|k4b;3798539000000;0;32;-1;-1;1
46.305|k4b;3798539666550;0;32;-1;-1;1
46.405|k4b;3798540333330;0;32;-1;-1;1
46.479|k4b;3798541666660;0;32;-1;-1;1
46.579|k4b;3798542333330;0;32;-1;-1;1
46.650|k4b;3798543000000;0;32;-1;-1;1
46.750|k4b;3798544333330;0;32;-1;-1;1
46.824|k4b;3798545000000;0;32;-1;-1;1
46.924|k4b;3798545666660;0;32;-1;-1;1
47.000|k4b;3798546333330;0;32;-1;-1;1
47.100|k4b;3798547666660;0;32;-1;-1;1
47.177|k4b;3798548333330;0;32;-1;-1;1
47.274|k4b;3798549666660;0;32;-1;-1;1
47.347|k4b;3798550333330;0;32;-1;-1;1
47.442|k4b;3798551000000;0;32;-1;-1;1
47.513|k4b;3798551666660;0;32;-1;-1;1
47.613|k4b;3798553000000;0;32;-1;-1;1
47.698|k4b;3798553666660;0;32;-1;-1;1
47.798|k4b;3798554333330;0;32;-1;-1;1
47.872|k4b;3798556000000;0;32;-1;-1;1
47.971|k4b;3798556666660;0;32;-1;-1;1
48.043|k4b;3798557333330;0;32;-1;-1;1
48.143|k4b;3798558000000;0;32;-1;-1;1
48.219|k4b;3798558666660;0;32;-1;-1;1
48.319|k4b;3798560000000;0;32;-1;-1;1
48.396|k4b;3798560666660;0;32;-1;-1;1
48.496|k4b;3798562000000;0;32;-1;-1;1
48.584|k4b;3798562666660;0;32;-1;-1;1
48.684|k4b;3798564000000;0;32;-1;-1;1
48.767|k4b;3798564666660;0;32;-1;-1;1
48.866|k4b;3798565333330;0;32;-1;-1;1
48.940|k4b;3798566666660;0;32;-1;-1;1
49.039|k4b;3798567333330;0;32;-1;-1;1
49.120|k4b;3798568000000;0;32;-1;-1;1
49.218|k4b;3798569333330;0;32;-1;-1;1
49.291|k4b;3798570000000;0;32;-1;-1;1
49.391|k4b;3798570666660;0;32;-1;-1;1
49.464|k4b;3798572000000;0;32;-1;-1;1
49.564|k4b;3798572666660;0;32;-1;-1;1
49.640|k4b;3798573333330;0;32;-1;-1;1
49.740|k4b;3798574666660;0;32;-1;-1;1
49.811|k4b;3798575333330;0;32;-1;-1;1
49.911|k4b;3798575999880;0;32;-1;-1;1
49.985|k4b;3798577333330;0;32;-1;-1;1
50.085|k4b;3798578000000;0;32;-1;-1;1
50.156|k4b;3798578666660;0;32;-1;-1;1
50.256|k4b;3798579666660;0;32;-1;-1;1
50.329|k4b;3798580333330;0;32;-1;-1;1
50.428|k4b;3798581666660;0;32;-1;-1;1
50.499|k4b;3798582333330;0;32;-1;-1;1
50.599|k4b;3798583666660;0;32;-1;-1;1
50.673|k4b;3798584333330;0;32;-1;-1;1
50.772|k4b;3798585000000;0;32;-1;-1;1
50.845|k4b;3798585666660;0;32;-1;-1;1
50.944|k4b;3798587000000;0;32;-1;-1;1
51.023|k4b;3798587666660;0;32;-1;-1;1
51.121|k4b;3798588333330;0;32;-1;-1;1
51.195|k4b;3798589666660;0;32;-1;-1;1
51.294|k4b;3798590333330;0;32;-1;-1;1
51.364|k4b;3798591000000;0;32;-1;-1;1
51.464|k4b;3798591666660;0;32;-1;-1;1
51.545|k4b;3798593000000;0;32;-1;-1;1
51.644|k4b;3798593666660;0;32;-1;-1;1
51.716|k4b;3798594333330;0;32;-1;-1;1
51.816|k4b;3798595666660;0;32;-1;-1;1
51.895|k4b;3798596333330;0;32;-1;-1;1
51.992|k4b;3798597666660;0;32;-1;-1;1
52.069|k4b;3798598333330;0;32;-1;-1;1
52.169|k4b;3798599000000;0;32;-1;-1;1
52.269|k4b;3798599666660;0;32;-1;-1;1
52.369|k4b;3798601333330;0;32;-1;-1;1
52.441|k4b;3798603333330;0;32;-1;-1;1
52.512|k4b;3798604000000;0;32;-1;-1;1
52.581|k4b;3798604666660;0;32;-1;-1;1
52.658|k4b;3798605333330;0;32;-1;-1;1
52.735|k4b;3798606000000;0;32;-1;-1;1
52.808|k4b;3798607000000;0;32;-1;-1;1
52.884|k4b;3798607666660;0;32;-1;-1;1
52.953|k4b;3798608333330;0;32;-1;-1;1
53.028|k4b;3798609000000;0;32;-1;-1;1
53.099|k4b;3798610000000;0;32;-1;-1;1
53.169|k4b;3798610666660;0;32;-1;-1;1
53.238|k4b;3798611333330;0;32;-1;-1;1
53.307|k4b;3798612333330;0;32;-1;-1;1
53.375|k4b;3798613000000;0;32;-1;-1;1
53.444|k4b;3798613666660;0;32;-1;-1;1
53.511|k4b;3798614333330;0;32;-1;-1;1
53.580|k4b;3798615000000;0;32;-1;-1;1
53.651|k4b;3798615666660;0;32;-1;-1;1
53.719|k4b;3798616333330;0;32;-1;-1;1
53.800|k4b;3798617000000;0;32;-1;-1;1
53.878|k4b;3798617666660;0;32;-1;-1;1
53.957|k4b;3798618333330;0;32;-1;-1;1
54.028|k4b;3798619000000;0;32;-1;-1;1
54.101|k4b;3798619666660;0;32;-1;-1;1
54.172|k4b;3798620666660;0;32;-1;-1;1
54.244|k4b;3798621333330;0;32;-1;-1;1
54.317|k4b;3798622000000;0;32;-1;-1;1
54.395|k4b;3798622666660;0;32;-1;-1;1
54.471|k4b;3798623666660;0;32;-1;-1;1
54.542|k4b;3798624333330;0;32;-1;-1;1
54.612|k4b;3798625000000;0;32;-1;-1;1
54.682|k4b;3798625666660;0;32;-1;-1;1
54.754|k4b;3798626666660;0;32;-1;-1;1
54.827|k4b;3798627333330;0;32;-1;-1;1
54.904|k4b;3798628000000;0;32;-1;-1;1
54.979|k4b;3798629000000;0;32;-1;-1;1
55.049|k4b;3798629666660;0;32;-1;-1;1
55.127|k4b;3798630333330;0;32;-1;-1;1
55.211|k4b;3798631000000;0;32;-1;-1;1
55.283|k4b;3798631666660;0;32;-1;-1;1
55.350|k4b;3798633000000;0;32;-1;-1;1
55.480|k4b;3798633666660;0;32;-1;-1;1
55.549|k4b;3798634333220;0;32;-1;-1;1
55.616|k4b;3798635000000;0;32;-1;-1;1
55.692|k4b;3798636333330;0;32;-1;-1;1
55.833|k4b;3798637000000;0;32;-1;-1;1
55.910|k4b;3798638333330;0;32;-1;-1;1
55.979|k4b;3798639000000;0;32;-1;-1;1
56.050|k4b;3798639666660;0;32;-1;-1;1
56.121|k4b;3798640333330;0;32;-1;-1;1
56.195|k4b;3798641000000;0;32;-1;-1;1
56.266|k4b;3798641666550;0;32;-1;-1;1
56.340|k4b;3798642333330;0;32;-1;-1;1
56.422|k4b;3798643000000;0;32;-1;-1;1
56.498|k4b;3798643666660;0;32;-1;-1;1
56.575|k4b;3798645000000;0;32;-1;-1;1
56.649|k4b;3798645666660;0;32;-1;-1;1
56.730|k4b;3798646333330;0;32;-1;-1;1
56.802|k4b;3798647000000;0;32;-1;-1;1
56.872|k4b;3798647666660;0;32;-1;-1;1
56.943|k4b;3798648333330;0;32;-1;-1;1
57.013|k4b;3798649333330;0;32;-1;-1;1
57.086|k4b;3798650000000;0;32;-1;-1;1
57.171|k4b;3798650666660;0;32;-1;-1;1
57.243|k4b;3798651333330;0;32;-1;-1;1
57.321|k4b;3798652000000;0;32;-1;-1;1
57.397|k4b;3798653333330;0;32;-1;-1;1
57.468|k4b;3798654000000;0;32;-1;-1;1
57.541|k4b;3798654666660;0;32;-1;-1;1
57.613|k4b;3798655333330;0;32;-1;-1;1
57.684|k4b;3798656000000;0;32;-1;-1;1
57.762|k4b;3798656666660;0;32;-1;-1;1
57.836|k4b;3798657333330;0;32;-1;-1;1
57.914|k4b;3798658000000;0;32;-1;-1;1
57.995|k4b;3798658666660;0;32;-1;-1;1
58.075|k4b;3798659666660;0;32;-1;-1;1
58.148|k4b;3798660333330;0;32;-1;-1;1
58.228|k4b;3798661000000;0;32;-1;-1;1
58.303|k4b;3798662333330;0;32;-1;-1;1
58.379|k4b;3798662666660;0;32;-1;-1;1
58.455|k4b;3798663333330;0;32;-1;-1;1
58.532|k4b;3798664666660;0;32;-1;-1;1
58.672|k4b;3798665333330;0;32;-1;-1;1
58.755|k4b;3798666666660;0;32;-1;-1;1
58.831|k4b;3798667333330;0;32;-1;-1;1
58.904|k4b;3798668000000;0;32;-1;-1;1
58.984|k4b;3798668666660;0;32;-1;-1;1
59.064|k4b;3798669333330;0;32;-1;-1;1
59.152|k4b;3798670333330;0;32;-1;-1;1
59.252|k4b;3798671000000;0;32;-1;-1;1
59.340|k4b;3798672333330;0;32;-1;-1;1
59.423|k4b;3798673000000;0;32;-1;-1;1
59.491|k4b;3798674333330;0;32;-1;-1;1
59.559|k4b;3798675000000;0;32;-1;-1;1
59.633|k4b;3798675666660;0;32;-1;-1;1
59.708|k4b;3798676333330;0;32;-1;-1;1
59.796|k4b;3798677000000;0;32;-1;-1;1
59.878|k4b;3798677666660;0;32;-1;-1;1
59.954|k4b;3798678333330;0;32;-1;-1;1
60.024|k4b;3798679000000;0;32;-1;-1;1
60.093|k4b;3798680333330;0;32;-1;-1;1
60.179|k4b;3798681000000;0;32;-1;-1;1
60.279|k4b;3798681666660;0;32;-1;-1;1
60.377|k4b;3798682333330;0;32;-1;-1;1
60.451|k4b;3798683666660;0;32;-1;-1;1
60.548|k4b;3798685000000;0;32;-1;-1;1
60.619|k4b;3798685666660;0;32;-1;-1;1
60.717|k4b;3798686333330;0;32;-1;-1;1
60.789|k4b;3798687000000;0;32;-1;-1;1
60.889|k4b;3798688333330;0;32;-1;-1;1
60.959|k4b;3798689000000;0;32;-1;-1;1
61.054|k4b;3798689666660;0;32;-1;-1;1
61.123|k4b;3798690333330;0;32;-1;-1;1
61.218|k4b;3798691666660;0;32;-1;-1;1
61.289|k4b;3798692333330;0;32;-1;-1;1
61.388|k4b;3798693000000;0;32;-1;-1;1
61.458|k4b;3798693666660;0;32;-1;-1;1
61.556|k4b;3798695000000;0;32;-1;-1;1
61.656|k4b;3798695666660;0;32;-1;-1;1
61.756|k4b;3798696333330;0;32;-1;-1;1
61.856|k4b;3798697666660;0;32;-1;-1;1
61.956|k4b;3798699000000;0;32;-1;-1;1
62.028|k4b;3798699666660;0;32;-1;-1;1
62.128|k4b;3798701000000;0;32;-1;-1;1
62.228|k4b;3798701666660;0;32;-1;-1;1
62.328|k4b;3798703000000;0;32;-1;-1;1
62.397|k4b;3798703666660;0;32;-1;-1;1
62.497|k4b;3798705000000;0;32;-1;-1;1
62.566|k4b;3798705666660;0;32;-1;-1;1
62.664|k4b;3798706333330;0;32;-1;-1;1
62.736|k4b;3798707000000;0;32;-1;-1;1
62.836|k4b;3798708333330;0;32;-1;-1;1
62.907|k4b;3798709000000;0;32;-1;-1;1
63.002|k4b;3798709666660;0;32;-1;-1;1
63.071|k4b;3798710333330;0;32;-1;-1;1
63.171|k4b;3798711333330;0;32;-1;-1;1
63.271|k4b;3798712000000;0;32;-1;-1;1
63.370|k4b;3798713333330;0;32;-1;-1;1
63.440|k4b;3798714666660;0;32;-1;-1;1
63.538|k4b;3798715333330;0;32;-1;-1;1
63.608|k4b;3798716000000;0;32;-1;-1;1
63.707|k4b;3798717333330;0;32;-1;-1;1
63.807|k4b;3798718000000;0;32;-1;-1;1
63.907|k4b;3798718666660;0;32;-1;-1;1
63.976|k4b;3798720000000;0;32;-1;-1;1
64.076|k4b;3798721333330;0;32;-1;-1;1
64.150|k4b;3798722000000;0;32;-1;-1;1
64.250|k4b;3798722666660;0;32;-1;-1;1
64.327|k4b;3798724000000;0;32;-1;-1;1
64.427|k4b;3798724666660;0;32;-1;-1;1
64.501|k4b;3798725333330;0;32;-1;-1;1
64.601|k4b;3798726666660;0;32;-1;-1;1
64.673|k4b;3798727333330;0;32;-1;-1;1
64.770|k4b;3798728000000;0;32;-1;-1;1
64.842|k4b;3798728666660;0;32;-1;-1;1
64.942|k4b;3798729666660;0;32;-1;-1;1
65.012|k4b;3798730333330;0;32;-1;-1;1
65.112|k4b;3798731666660;0;32;-1;-1;1
65.212|k4b;3798732333330;0;32;-1;-1;1
65.312|k4b;3798733000000;0;32;-1;-1;1
65.381|k4b;3798734333330;0;32;-1;-1;1
65.543|k4b;3798735666660;0;32;-1;-1;1
65.641|k4b;3798737000000;0;32;-1;-1;1
65.719|k4b;3798737666660;0;32;-1;-1;1
65.819|k4b;3798738333330;0;32;-1;-1;1
65.917|k4b;3798739333330;0;32;-1;-1;1
66.017|k4b;3798740666660;0;32;-1;-1;1
66.109|k4b;3798741333330;0;32;-1;-1;1
66.205|k4b;3798743333330;0;32;-1;-1;1
66.280|k4b;3798744000000;0;32;-1;-1;1
66.380|k4b;3798744666660;0;32;-1;-1;1
66.467|k4b;3798745333330;0;32;-1;-1;1
66.567|k4b;3798746666660;0;32;-1;-1;1
66.647|k4b;3798747333330;0;32;-1;-1;1
66.747|k4b;3798748666660;0;32;-1;-1;1
66.826|k4b;3798749333330;0;32;-1;-1;1
66.926|k4b;3798750666660;0;32;-1;-1;1
67.005|k4b;3798751333330;0;32;-1;-1;1
67.105|k4b;3798752000000;0;32;-1;-1;1
67.182|k4b;3798753333330;0;32;-1;-1;1
67.282|k4b;3798754000000;0;32;-1;-1;1
67.365|k4b;3798754666660;0;32;-1;-1;1
67.465|k4b;3798756000000;0;32;-1;-1;1
67.538|k4b;3798756666660;0;32;-1;-1;1
67.638|k4b;3798758000000;0;32;-1;-1;1
67.710|k4b;3798758666660;0;32;-1;-1;1
67.810|k4b;3798759333330;0;32;-1;-1;1
67.894|k4b;3798760666660;0;32;-1;-1;1
67.994|k4b;3798761333330;0;32;-1;-1;1
68.065|k4b;3798762000000;0;32;-1;-1;1
68.165|k4b;3798763333330;0;32;-1;-1;1
68.244|k4b;3798764000000;0;32;-1;-1;1
68.343|k4b;3798764666660;0;32;-1;-1;1
68.424|k4b;3798766000000;0;32;-1;-1;1
68.521|k4b;3798766666660;0;32;-1;-1;1
68.595|k4b;3798767333330;0;32;-1;-1;1
68.763|k4b;3798769000000;0;32;-1;-1;1
68.862|k4b;3798770333330;0;32;-1;-1;1
68.936|k4b;3798771000000;0;32;-1;-1;1
69.034|k4b;3798771666660;0;32;-1;-1;1
69.125|k4b;3798772333330;0;32;-1;-1;1
69.225|k4b;3798773666660;0;32;-1;-1;1
69.305|k4b;3798774333330;0;32;-1;-1;1
69.405|k4b;3798775666660;0;32;-1;-1;1
69.484|k4b;3798776333330;0;32;-1;-1;1
69.584|k4b;3798777666660;0;32;-1;-1;1
69.667|k4b;3798778000000;0;32;-1;-1;1
69.767|k4b;3798779333330;0;32;-1;-1;1
69.849|k4b;3798779999880;0;32;-1;-1;1
69.944|k4b;3798781333330;0;32;-1;-1;1
70.017|k4b;3798782000000;0;32;-1;-1;1
70.117|k4b;3798782666660;0;32;-1;-1;1
70.186|k4b;3798783666660;0;32;-1;-1;1
70.286|k4b;3798785000000;0;32;-1;-1;1
70.378|k4b;3798785666660;0;32;-1;-1;1
70.478|k4b;3798786333330;0;32;-1;-1;1
70.575|k4b;3798787666660;0;32;-1;-1;1
70.646|k4b;3798789333330;0;32;-1;-1;1
70.718|k4b;3798790000000;0;32;-1;-1;1
70.790|k4b;3798790666660;0;32;-1;-1;1
70.861|k4b;3798791333330;0;32;-1;-1;1
70.934|k4b;3798792000000;0;32;-1;-1;1
71.073|k4b;3798793333330;0;32;-1;-1;1
71.142|k4b;3798794000000;0;32;-1;-1;1
71.217|k4b;3798795333330;0;32;-1;-1;1
71.309|k4b;3798796000000;0;32;-1;-1;1
71.409|k4b;3798796666660;0;32;-1;-1;1
71.492|k4b;3798797333330;0;32;-1;-1;1
71.567|k4b;3798798666660;0;32;-1;-1;1
71.641|k4b;3798799333330;0;32;-1;-1;1
71.716|k4b;3798800000000;0;32;-1;-1;1
71.788|k4b;3798800666660;0;32;-1;-1;1
71.860|k4b;3798801333330;0;32;-1;-1;1
71.935|k4b;3798802666660;0;32;-1;-1;1
72.005|k4b;3798803333330;0;32;-1;-1;1
72.078|k4b;3798804000000;0;32;-1;-1;1
72.157|k4b;3798804666660;0;32;-1;-1;1
72.233|k4b;3798805333330;0;32;-1;-1;1
72.333|k4b;3798806000000;0;32;-1;-1;1
72.433|k4b;3798806666660;0;32;-1;-1;1
72.533|k4b;3798808333330;0;32;-1;-1;1
72.633|k4b;3798809666660;0;32;-1;-1;1
72.729|k4b;3798810333330;0;32;-1;-1;1
72.809|k4b;3798811666660;0;32;-1;-1;1
72.892|k4b;3798812333330;0;32;-1;-1;1
72.992|k4b;3798813000000;0;32;-1;-1;1
73.092|k4b;3798814333330;0;32;-1;-1;1
73.184|k4b;3798815000000;0;32;-1;-1;1
73.255|k4b;3798816333220;0;32;-1;-1;1
73.325|k4b;3798817000000;0;32;-1;-1;1
73.398|k4b;3798817666660;0;32;-1;-1;1
73.498|k4b;3798819000000;0;32;-1;-1;1
73.598|k4b;3798819666660;0;32;-1;-1;1
73.698|k4b;3798821000000;0;32;-1;-1;1
73.775|k4b;3798823000000;0;32;-1;-1;1
73.875|k4b;3798824333330;0;32;-1;-1;1
73.975|k4b;3798825000000;0;32;-1;-1;1
74.075|k4b;3798826333330;0;32;-1;-1;1
74.148|k4b;3798827000000;0;32;-1;-1;1
74.248|k4b;3798828333330;0;32;-1;-1;1
74.322|k4b;3798829000000;0;32;-1;-1;1
74.422|k4b;3798829666660;0;32;-1;-1;1
74.494|k4b;3798830333330;0;32;-1;-1;1
74.594|k4b;3798832000000;0;32;-1;-1;1
74.666|k4b;3798832666660;0;32;-1;-1;1
74.766|k4b;3798833333330;0;32;-1;-1;1
74.841|k4b;3798834000000;0;32;-1;-1;1
74.941|k4b;3798835333330;0;32;-1;-1;1
75.041|k4b;3798836000000;0;32;-1;-1;1
75.141|k4b;3798837333330;0;32;-1;-1;1
75.241|k4b;3798838000000;0;32;-1;-1;1
75.341|k4b;3798839333330;0;32;-1;-1;1
75.441|k4b;3798840666660;0;32;-1;-1;1
75.541|k4b;3798841333330;0;32;-1;-1;1
75.641|k4b;3798842666660;0;32;-1;-1;1
75.741|k4b;3798843333330;0;32;-1;-1;1
75.841|k4b;3798844666660;0;32;-1;-1;1
75.941|k4b;3798846000000;0;32;-1;-1;1
76.041|k4b;3798846666660;0;32;-1;-1;1
76.141|k4b;3798848000000;0;32;-1;-1;1
76.216|k4b;3798849333330;0;32;-1;-1;1
76.316|k4b;3798850000000;0;32;-1;-1;1
76.387|k4b;3798850666660;0;32;-1;-1;1
76.487|k4b;3798852000000;0;32;-1;-1;1
76.559|k4b;3798852666660;0;32;-1;-1;1
76.659|k4b;3798853333330;0;32;-1;-1;1
76.739|k4b;3798854000000;0;32;-1;-1;1
76.839|k4b;3798855333330;0;32;-1;-1;1
76.915|k4b;3798856000000;0;32;-1;-1;1
77.015|k4b;3798857333330;0;32;-1;-1;1
77.086|k4b;3798858000000;0;32;-1;-1;1
77.186|k4b;3798858666660;0;32;-1;-1;1
77.261|k4b;3798859999880;0;32;-1;-1;1
77.361|k4b;3798860666660;0;32;-1;-1;1
77.433|k4b;3798861333330;0;32;-1;-1;1
77.533|k4b;3798862666660;0;32;-1;-1;1
77.633|k4b;3798863333330;0;32;-1;-1;1
77.733|k4b;3798864666660;0;32;-1;-1;1
77.826|k4b;3798865333330;0;32;-1;-1;1
77.926|k4b;3798867000000;0;32;-1;-1;1
78.011|k4b;3798867666660;0;32;-1;-1;1
78.111|k4b;3798869000000;0;32;-1;-1;1
78.183|k4b;3798869666660;0;32;-1;-1;1
78.283|k4b;3798870333330;0;32;-1;-1;1
78.357|k4b;3798871666660;0;32;-1;-1;1
78.457|k4b;3798872333330;0;32;-1;-1;1
78.538|k4b;3798873000000;0;32;-1;-1;1
78.638|k4b;3798874333330;0;32;-1;-1;1
78.714|k4b;3798875000000;0;32;-1;-1;1
78.814|k4b;3798876333330;0;32;-1;-1;1
78.914|k4b;3798877000000;0;32;-1;-1;1
79.014|k4b;3798877666660;0;32;-1;-1;1
79.114|k4b;3798879666660;0;32;-1;-1;1
79.214|k4b;3798881000000;0;32;-1;-1;1
79.314|k4b;3798881666660;0;32;-1;-1;1
79.414|k4b;3798883000000;0;32;-1;-1;1
79.496|k4b;3798884333330;0;32;-1;-1;1
79.596|k4b;3798885666660;0;32;-1;-1;1
79.672|k4b;3798886333330;0;32;-1;-1;1
79.772|k4b;3798887666660;0;32;-1;-1;1
79.844|k4b;3798888333330;0;32;-1;-1;1
79.944|k4b;3798889000000;0;32;-1;-1;1
80.024|k4b;3798889666660;0;32;-1;-1;1
80.124|k4b;3798891333330;0;32;-1;-1;1
80.211|k4b;3798892000000;0;32;-1;-1;1
80.311|k4b;3798892666660;0;32;-1;-1;1
80.385|k4b;3798893333330;0;32;-1;-1;1
80.485|k4b;3798894666660;0;32;-1;-1;1
80.557|k4b;3798895333330;0;32;-1;-1;1
80.657|k4b;3798896333330;0;32;-1;-1;1
80.727|k4b;3798897000000;0;32;-1;-1;1
80.827|k4b;3798898333330;0;32;-1;-1;1
80.900|k4b;3798899000000;0;32;-1;-1;1
81.000|k4b;3798900333330;0;32;-1;-1;1
81.071|k4b;3798901000000;0;32;-1;-1;1
81.171|k4b;3798901666660;0;32;-1;-1;1
81.245|k4b;3798902333330;0;32;-1;-1;1
81.345|k4b;3798903666550;0;32;-1;-1;1
81.427|k4b;3798904333330;0;32;-1;-1;1
81.527|k4b;3798905666660;0;32;-1;-1;1
81.603|k4b;3798906333330;0;32;-1;-1;1
81.703|k4b;3798907666660;0;32;-1;-1;1
81.779|k4b;3798908333330;0;32;-1;-1;1
81.879|k4b;3798909000000;0;32;-1;-1;1
81.953|k4b;3798909666660;0;32;-1;-1;1
82.053|k4b;3798911333330;0;32;-1;-1;1
82.136|k4b;3798912000000;0;32;-1;-1;1
82.236|k4b;3798912666660;0;32;-1;-1;1
82.309|k4b;3798914000000;0;32;-1;-1;1
82.409|k4b;3798914666660;0;32;-1;-1;1
82.481|k4b;3798915333330;0;32;-1;-1;1
82.581|k4b;3798916333330;0;32;-1;-1;1
82.663|k4b;3798917000000;0;32;-1;-1;1
82.763|k4b;3798918333220;0;32;-1;-1;1
82.834|k4b;3798919000000;0;32;-1;-1;1
82.934|k4b;3798920333330;0;32;-1;-1;1
83.006|k4b;3798921000000;0;32;-1;-1;1
83.106|k4b;3798921666660;0;32;-1;-1;1
83.181|k4b;3798923000000;0;32;-1;-1;1
83.281|k4b;3798923666660;0;32;-1;-1;1
83.356|k4b;3798924333330;0;32;-1;-1;1
83.456|k4b;3798925666660;0;32;-1;-1;1
83.528|k4b;3798926333330;0;32;-1;-1;1
83.628|k4b;3798927666660;0;32;-1;-1;1
83.699|k4b;3798928333330;0;32;-1;-1;1
83.799|k4b;3798929000000;0;32;-1;-1;1
83.875|k4b;3798929666660;0;32;-1;-1;1
83.975|k4b;3798931000000;0;32;-1;-1;1
84.050|k4b;3798931666660;0;32;-1;-1;1
84.150|k4b;3798933000000;0;32;-1;-1;1
84.224|k4b;3798933666660;0;32;-1;-1;1
84.387|k4b;3798935000000;0;32;-1;-1;1
84.487|k4b;3798936666660;0;32;-1;-1;1
84.558|k4b;3798937333330;0;32;-1;-1;1
84.658|k4b;3798938000000;0;32;-1;-1;1
84.733|k4b;3798938666660;0;32;-1;-1;1
84.833|k4b;3798940000000;0;32;-1;-1;1
84.911|k4b;3798940666660;0;32;-1;-1;1
85.011|k4b;3798942000000;0;32;-1;-1;1
85.084|k4b;3798942666660;0;32;-1;-1;1
85.184|k4b;3798943333330;0;32;-1;-1;1
85.254|k4b;3798944000000;0;32;-1;-1;1
85.354|k4b;3798945666660;0;32;-1;-1;1
85.432|k4b;3798946333330;0;32;-1;-1;1
85.532|k4b;3798947000000;0;32;-1;-1;1
85.610|k4b;3798947666660;0;32;-1;-1;1
85.710|k4b;3798949000000;0;32;-1;-1;1
85.810|k4b;3798949666660;0;32;-1;-1;1
85.910|k4b;3798951000000;0;32;-1;-1;1
86.010|k4b;3798952333330;0;32;-1;-1;1
86.110|k4b;3798953000000;0;32;-1;-1;1
86.180|k4b;3798954333330;0;32;-1;-1;1
86.280|k4b;3798955333330;0;32;-1;-1;1
86.350|k4b;3798956000000;0;32;-1;-1;1
86.450|k4b;3798957333330;0;32;-1;-1;1
86.522|k4b;3798958000000;0;32;-1;-1;1
86.622|k4b;3798958666660;0;32;-1;-1;1
86.695|k4b;3798959333330;0;32;-1;-1;1
86.795|k4b;3798960333330;0;32;-1;-1;1
86.868|k4b;3798961000000;0;32;-1;-1;1
86.968|k4b;3798962333330;0;32;-1;-1;1
87.042|k4b;3798963000000;0;32;-1;-1;1
87.142|k4b;3798964333330;0;32;-1;-1;1
87.242|k4b;3798965000000;0;32;-1;-1;1
87.342|k4b;3798965666660;0;32;-1;-1;1
87.418|k4b;3798967000000;0;32;-1;-1;1
87.518|k4b;3798968333330;0;32;-1;-1;1
87.591|k4b;3798969000000;0;32;-1;-1;1
87.691|k4b;3798969666660;0;32;-1;-1;1
87.791|k4b;3798971000000;0;32;-1;-1;1
87.891|k4b;3798971666660;0;32;-1;-1;1
87.965|k4b;3798973000000;0;32;-1;-1;1
88.065|k4b;3798974333330;0;32;-1;-1;1
88.146|k4b;3798975000000;0;32;-1;-1;1
88.246|k4b;3798975666660;0;32;-1;-1;1
88.326|k4b;3798976333330;0;32;-1;-1;1
88.426|k4b;3798977666660;0;32;-1;-1;1
88.506|k4b;3798978333330;0;32;-1;-1;1
88.606|k4b;3798979666660;0;32;-1;-1;1
88.706|k4b;3798980333330;0;32;-1;-1;1
88.806|k4b;3798981666660;0;32;-1;-1;1
88.906|k4b;3798983000000;0;32;-1;-1;1
89.006|k4b;3798984333330;0;32;-1;-1;1
89.086|k4b;3798985666660;0;32;-1;-1;1
89.186|k4b;3798986333330;0;32;-1;-1;1
89.259|k4b;3798987666660;0;32;-1;-1;1
89.359|k4b;3798988333330;0;32;-1;-1;1
89.438|k4b;3798989000000;0;32;-1;-1;1
89.538|k4b;3798990333330;0;32;-1;-1;1
89.622|k4b;3798991000000;0;32;-1;-1;1
89.722|k4b;3798992333330;0;32;-1;-1;1
89.806|k4b;3798993000000;0;32;-1;-1;1
89.906|k4b;3798994333330;0;32;-1;-1;1
89.983|k4b;3798995000000;0;32;-1;-1;1
90.083|k4b;3798996333330;0;32;-1;-1;1
90.157|k4b;3798997000000;0;32;-1;-1;1
90.257|k4b;3798998333220;0;32;-1;-1;1
90.349|k4b;3798999000000;0;32;-1;-1;1
90.449|k4b;3798999666660;0;32;-1;-1;1
90.532|k4b;3799001000000;0;32;-1;-1;1
90.632|k4b;3799002333330;0;32;-1;-1;1
90.710|k4b;3799003000000;0;32;-1;-1;1
90.810|k4b;3799004333330;0;32;-1;-1;1
90.884|k4b;3799005000000;0;32;-1;-1;1
90.984|k4b;3799005666550;0;32;-1;-1;1
91.084|k4b;3799007000000;0;32;-1;-1;1
91.184|k4b;3799008333330;0;32;-1;-1;1
91.284|k4b;3799009000000;0;32;-1;-1;1
91.384|k4b;3799010666660;0;32;-1;-1;1
91.459|k4b;3799011333330;0;32;-1;-1;1
91.559|k4b;3799012666660;0;32;-1;-1;1
91.628|k4b;3799013333330;0;32;-1;-1;1
91.728|k4b;3799014000000;0;32;-1;-1;1
91.810|k4b;3799015000000;0;32;-1;-1;1
91.910|k4b;3799016333330;0;32;-1;-1;1
91.985|k4b;3799017000000;0;32;-1;-1;1
92.173|k4b;3799018333330;0;32;-1;-1;1
92.273|k4b;3799020333330;0;32;-1;-1;1
92.362|k4b;3799020666660;0;32;-1;-1;1
92.462|k4b;3799022333330;0;32;-1;-1;1
92.562|k4b;3799023000000;0;32;-1;-1;1
92.662|k4b;3799024333330;0;32;-1;-1;1
92.738|k4b;3799025000000;0;32;-1;-1;1
92.838|k4b;3799026333330;0;32;-1;-1;1
92.910|k4b;3799027000000;0;32;-1;-1;1
93.010|k4b;3799028333330;0;32;-1;-1;1
93.082|k4b;3799029000000;0;32;-1;-1;1
93.182|k4b;3799029666660;0;32;-1;-1;1
93.258|k4b;3799030333330;0;32;-1;-1;1
93.358|k4b;3799032000000;0;32;-1;-1;1
93.434|k4b;3799032666660;0;32;-1;-1;1
93.534|k4b;3799033333330;0;32;-1;-1;1
93.620|k4b;3799034666660;0;32;-1;-1;1
93.720|k4b;3799035333330;0;32;-1;-1;1
93.820|k4b;3799036000000;0;32;-1;-1;1
93.920|k4b;3799037333330;0;32;-1;-1;1
93.997|k4b;3799038666660;0;32;-1;-1;1
94.097|k4b;3799039333330;0;32;-1;-1;1
94.197|k4b;3799040000000;0;32;-1;-1;1
94.297|k4b;3799041333330;0;32;-1;-1;1
94.367|k4b;3799042666660;0;32;-1;-1;1
94.467|k4b;3799043333330;0;32;-1;-1;1
94.540|k4b;3799044000000;0;32;-1;-1;1
94.640|k4b;3799045333330;0;32;-1;-1;1
94.717|k4b;3799046000000;0;32;-1;-1;1
94.881|k4b;3799047666660;0;32;-1;-1;1
94.981|k4b;3799049000000;0;32;-1;-1;1
95.056|k4b;3799049666660;0;32;-1;-1;1
95.221|k4b;3799051000000;0;32;-1;-1;1
95.321|k4b;3799052666660;0;32;-1;-1;1
95.392|k4b;3799053333330;0;32;-1;-1;1
95.492|k4b;3799054000000;0;32;-1;-1;1
95.564|k4b;3799055333330;0;32;-1;-1;1
95.664|k4b;3799056000000;0;32;-1;-1;1
95.744|k4b;3799056666550;0;32;-1;-1;1
95.844|k4b;3799058000000;0;32;-1;-1;1
95.919|k4b;3799058333330;0;32;-1;-1;1
96.019|k4b;3799059666660;0;32;-1;-1;1
96.093|k4b;3799060333330;0;32;-1;-1;1
96.193|k4b;3799061000000;0;32;-1;-1;1
96.267|k4b;3799062333330;0;32;-1;-1;1
96.367|k4b;3799063000000;0;32;-1;-1;1
96.442|k4b;3799063666660;0;32;-1;-1;1
96.542|k4b;3799065000000;0;32;-1;-1;1
96.614|k4b;3799065666660;0;32;-1;-1;1
96.714|k4b;3799067000000;0;32;-1;-1;1
96.784|k4b;3799067666660;0;32;-1;-1;1
96.884|k4b;3799069000000;0;32;-1;-1;1
96.961|k4b;3799069666660;0;32;-1;-1;1
97.061|k4b;3799070333330;0;32;-1;-1;1
97.134|k4b;3799071000000;0;32;-1;-1;1
97.234|k4b;3799072333330;0;32;-1;-1;1
97.306|k4b;3799073000000;0;32;-1;-1;1
97.406|k4b;3799074333330;0;32;-1;-1;1
97.482|k4b;3799075000000;0;32;-1;-1;1
97.582|k4b;3799075666660;0;32;-1;-1;1
97.659|k4b;3799077000000;0;32;-1;-1;1
97.759|k4b;3799077666660;0;32;-1;-1;1
97.844|k4b;3799078333330;0;32;-1;-1;1
97.944|k4b;3799079666660;0;32;-1;-1;1
98.029|k4b;3799080333330;0;32;-1;-1;1
98.129|k4b;3799081666660;0;32;-1;-1;1
98.229|k4b;3799082333330;0;32;-1;-1;1
98.329|k4b;3799083666660;0;32;-1;-1;1
98.410|k4b;3799085000000;0;32;-1;-1;1
98.510|k4b;3799085666660;0;32;-1;-1;1
98.610|k4b;3799086333330;0;32;-1;-1;1
98.710|k4b;3799087666660;0;32;-1;-1;1
98.810|k4b;3799089000000;0;32;-1;-1;1
98.910|k4b;3799090666660;0;32;-1;-1;1
99.010|k4b;3799091333330;0;32;-1;-1;1
99.110|k4b;3799092666660;0;32;-1;-1;1
99.210|k4b;3799094000000;0;32;-1;-1;1
99.303|k4b;3799095333330;0;32;-1;-1;1
99.403|k4b;3799096000000;0;32;-1;-1;1
99.503|k4b;3799097333330;0;32;-1;-1;1
99.602|k4b;3799098000000;0;32;-1;-1;1
99.702|k4b;3799099333330;0;32;-1;-1;1
99.791|k4b;3799100000000;0;32;-1;-1;1
99.882|k4b;3799101333330;0;32;-1;-1;1
99.982|k4b;3799102000000;0;32;-1;-1;1
100.072|k4b;3799102666660;0;32;-1;-1;1
100.172|k4b;3799104000000;0;32;-1;-1;1
100.272|k4b;3799105333330;0;32;-1;-1;1
100.362|k4b;3799106000000;0;32;-1;-1;1
100.462|k4b;3799107333330;0;32;-1;-1;1
100.562|k4b;3799108000000;0;32;-1;-1;1
100.661|k4b;3799109333330;0;32;-1;-1;1
100.761|k4b;3799110666660;0;32;-1;-1;1
100.852|k4b;3799111333330;0;32;-1;-1;1
100.939|k4b;3799112666660;0;32;-1;-1;1
101.039|k4b;3799113333330;0;32;-1;-1;1
101.131|k4b;3799114000000;0;32;-1;-1;1
101.231|k4b;3799115666660;0;32;-1;-1;1
101.331|k4b;3799116333330;0;32;-1;-1;1
101.430|k4b;3799117000000;0;32;-1;-1;1
101.530|k4b;3799118333330;0;32;-1;-1;1
101.630|k4b;3799119000000;0;32;-1;-1;1
101.730|k4b;3799120666660;0;32;-1;-1;1
101.830|k4b;3799121333330;0;32;-1;-1;1
101.930|k4b;3799122666660;0;32;-1;-1;1
102.030|k4b;3799123333330;0;32;-1;-1;1
102.130|k4b;3799124666660;0;32;-1;-1;1
102.230|k4b;3799126000000;0;32;-1;-1;1
102.329|k4b;3799127333330;0;32;-1;-1;1
102.429|k4b;3799128000000;0;32;-1;-1;1
102.529|k4b;3799129333330;0;32;-1;-1;1
102.629|k4b;3799130666660;0;32;-1;-1;1
102.729|k4b;3799131333330;0;32;-1;-1;1
102.829|k4b;3799132666660;0;32;-1;-1;1
102.929|k4b;3799134000000;0;32;-1;-1;1
103.029|k4b;3799134666660;0;32;-1;-1;1
103.129|k4b;3799136000000;0;32;-1;-1;1
103.229|k4b;3799136666660;0;32;-1;-1;1
103.329|k4b;3799138000000;0;32;-1;-1;1
103.421|k4b;3799139333330;0;32;-1;-1;1
103.521|k4b;3799140666660;0;32;-1;-1;1
103.621|k4b;3799141333330;0;32;-1;-1;1
103.721|k4b;3799142666660;0;32;-1;-1;1
103.821|k4b;3799143999880;0;32;-1;-1;1
103.921|k4b;3799144666660;0;32;-1;-1;1
104.017|k4b;3799146000000;0;32;-1;-1;1
104.113|k4b;3799146666660;0;32;-1;-1;1
104.213|k4b;3799148000000;0;32;-1;-1;1
104.309|k4b;3799148666660;0;32;-1;-1;1
104.405|k4b;3799150000000;0;32;-1;-1;1
104.505|k4b;3799150666660;0;32;-1;-1;1
104.605|k4b;3799151333220;0;32;-1;-1;1
104.705|k4b;3799152666660;0;32;-1;-1;1
104.805|k4b;3799154000000;0;32;-1;-1;1
104.900|k4b;3799155333330;0;32;-1;-1;1
105.000|k4b;3799156666660;0;32;-1;-1;1
105.100|k4b;3799157333330;0;32;-1;-1;1
105.200|k4b;3799158666550;0;32;-1;-1;1
105.300|k4b;3799160000000;0;32;-1;-1;1
105.400|k4b;3799161333330;0;32;-1;-1;1
105.500|k4b;3799162666660;0;32;-1;-1;1
105.600|k4b;3799163333330;0;32;-1;-1;1
105.692|k4b;3799164666660;0;32;-1;-1;1
105.792|k4b;3799166000000;0;32;-1;-1;1
105.892|k4b;3799166666660;0;32;-1;-1;1
105.985|k4b;3799168000000;0;32;-1;-1;1
106.085|k4b;3799168666660;0;32;-1;-1;1
106.185|k4b;3799170000000;0;32;-1;-1;1
106.285|k4b;3799170666660;0;32;-1;-1;1
106.385|k4b;3799172000000;0;32;-1;-1;1
106.485|k4b;3799173333330;0;32;-1;-1;1
106.556|k4b;3799174666660;0;32;-1;-1;1
106.630|k4b;3799176000000;0;32;-1;-1;1
106.771|k4b;3799176666660;0;32;-1;-1;1
106.843|k4b;3799178000000;0;32;-1;-1;1
106.918|k4b;3799178666660;0;32;-1;-1;1
106.995|k4b;3799179333330;0;32;-1;-1;1
107.071|k4b;3799180000000;0;32;-1;-1;1
107.145|k4b;3799180666660;0;32;-1;-1;1
107.218|k4b;3799181333330;0;32;-1;-1;1
107.292|k4b;3799182333330;0;32;-1;-1;1
107.367|k4b;3799183000000;0;32;-1;-1;1
107.451|k4b;3799183666660;0;32;-1;-1;1
107.524|k4b;3799184333330;0;32;-1;-1;1
107.597|k4b;3799185000000;0;32;-1;-1;1
107.671|k4b;3799186333330;0;32;-1;-1;1
107.744|k4b;3799187000000;0;32;-1;-1;1
107.819|k4b;3799187666550;0;32;-1;-1;1
107.919|k4b;3799188333330;0;32;-1;-1;1
108.019|k4b;3799189000000;0;32;-1;-1;1
108.119|k4b;3799190333330;0;32;-1;-1;1
108.219|k4b;3799191666660;0;32;-1;-1;1
108.319|k4b;3799193000000;0;32;-1;-1;1
108.419|k4b;3799193666660;0;32;-1;-1;1
108.519|k4b;3799194999880;0;32;-1;-1;1
108.619|k4b;3799196333330;0;32;-1;-1;1
108.719|k4b;3799197000000;0;32;-1;-1;1
108.819|k4b;3799198333330;0;32;-1;-1;1
108.919|k4b;3799199666660;0;32;-1;-1;1
109.019|k4b;3799200333330;0;32;-1;-1;1
109.119|k4b;3799201666660;0;32;-1;-1;1
109.219|k4b;3799202333220;0;32;-1;-1;1
109.319|k4b;3799204000000;0;32;-1;-1;1
109.419|k4b;3799204666660;0;32;-1;-1;1
109.519|k4b;3799206000000;0;32;-1;-1;1
109.619|k4b;3799207333330;0;32;-1;-1;1
109.719|k4b;3799208666660;0;32;-1;-1;1
109.819|k4b;3799210000000;0;32;-1;-1;1
109.919|k4b;3799211333330;0;32;-1;-1;1
110.019|k4b;3799212000000;0;32;-1;-1;1
110.119|k4b;3799213333330;0;32;-1;-1;1
110.219|k4b;3799214666660;0;32;-1;-1;1
110.319|k4b;3799215333330;0;32;-1;-1;1
110.419|k4b;3799216666660;0;32;-1;-1;1
110.519|k4b;3799218000000;0;32;-1;-1;1
110.619|k4b;3799219333330;0;32;-1;-1;1
110.719|k4b;3799220666660;0;32;-1;-1;1
110.819|k4b;3799221333330;0;32;-1;-1;1
110.919|k4b;3799222666660;0;32;-1;-1;1
111.019|k4b;3799223333330;0;32;-1;-1;1
111.119|k4b;3799224666660;0;32;-1;-1;1
111.219|k4b;3799226000000;0;32;-1;-1;1
111.319|k4b;3799227333330;0;32;-1;-1;1
111.419|k4b;3799228666660;0;32;-1;-1;1
111.519|k4b;3799230666660;0;32;-1;-1;1
111.619|k4b;3799232000000;0;32;-1;-1;1
111.719|k4b;3799232666660;0;32;-1;-1;1
111.819|k4b;3799234000000;0;32;-1;-1;1
111.919|k4b;3799235333330;0;32;-1;-1;1
112.019|k4b;3799236666660;0;32;-1;-1;1
112.119|k4b;3799237333330;0;32;-1;-1;1
112.219|k4b;3799238666550;0;32;-1;-1;1
112.319|k4b;3799240000000;0;32;-1;-1;1
112.419|k4b;3799240666660;0;32;-1;-1;1
112.519|k4b;3799242000000;0;32;-1;-1;1
112.619|k4b;3799243333330;0;32;-1;-1;1
112.719|k4b;3799244000000;0;32;-1;-1;1
112.819|k4b;3799245333330;0;32;-1;-1;1
112.919|k4b;3799246666660;0;32;-1;-1;1
113.019|k4b;3799248000000;0;32;-1;-1;1
113.119|k4b;3799248666660;0;32;-1;-1;1
113.219|k4b;3799250000000;0;32;-1;-1;1
113.319|k4b;3799251333330;0;32;-1;-1;1
113.419|k4b;3799252333330;0;32;-1;-1;1
113.519|k4b;3799253666660;0;32;-1;-1;1
113.619|k4b;3799254333330;0;32;-1;-1;1
113.719|k4b;3799255666660;0;32;-1;-1;1
113.819|k4b;3799257000000;0;32;-1;-1;1
113.919|k4b;3799257666660;0;32;-1;-1;1
114.019|k4b;3799259000000;0;32;-1;-1;1
114.119|k4b;3799260333330;0;32;-1;-1;1
114.219|k4b;3799261666660;0;32;-1;-1;1
114.319|k4b;3799262333330;0;32;-1;-1;1
114.419|k4b;3799263666660;0;32;-1;-1;1
114.519|k4b;3799265000000;0;32;-1;-1;1
114.619|k4b;3799266333330;0;32;-1;-1;1
114.719|k4b;3799267666660;0;32;-1;-1;1
114.819|k4b;3799268333330;0;32;-1;-1;1
114.919|k4b;3799269666660;0;32;-1;-1;1
115.019|k4b;3799271000000;0;32;-1;-1;1
115.119|k4b;3799272000000;0;32;-1;-1;1
115.219|k4b;3799273666660;0;32;-1;-1;1
115.319|k4b;3799275000000;0;32;-1;-1;1
115.419|k4b;3799276333330;0;32;-1;-1;1
115.519|k4b;3799277666660;0;32;-1;-1;1
115.619|k4b;3799279000000;0;32;-1;-1;1
115.719|k4b;3799280333330;0;32;-1;-1;1
115.819|k4b;3799281666660;0;32;-1;-1;1
115.919|k4b;3799282333220;0;32;-1;-1;1
116.019|k4b;3799283666660;0;32;-1;-1;1
116.119|k4b;3799285333330;0;32;-1;-1;1
116.219|k4b;3799286666660;0;32;-1;-1;1
116.319|k4b;3799287333330;0;32;-1;-1;1
116.419|k4b;3799288666660;0;32;-1;-1;1
116.519|k4b;3799290000000;0;32;-1;-1;1
116.619|k4b;3799290666660;0;32;-1;-1;1
116.719|k4b;3799291666660;0;32;-1;-1;1
116.819|k4b;3799293000000;0;32;-1;-1;1
116.919|k4b;3799294666660;0;32;-1;-1;1
117.019|k4b;3799295333330;0;32;-1;-1;1
117.119|k4b;3799296666660;0;32;-1;-1;1
117.219|k4b;3799298666660;0;32;-1;-1;1
117.319|k4b;3799300000000;0;32;-1;-1;1
117.419|k4b;3799300666660;0;32;-1;-1;1
117.519|k4b;3799302333330;0;32;-1;-1;1
117.619|k4b;3799303000000;0;32;-1;-1;1
117.719|k4b;3799304333330;0;32;-1;-1;1
117.819|k4b;3799305666660;0;32;-1;-1;1
117.919|k4b;3799307000000;0;32;-1;-1;1
118.019|k4b;3799307666660;0;32;-1;-1;1
118.119|k4b;3799309666660;0;32;-1;-1;1
118.219|k4b;3799311000000;0;32;-1;-1;1
118.319|k4b;3799311666660;0;32;-1;-1;1
118.414|k4b;3799313000000;0;32;-1;-1;1
118.514|k4b;3799314333330;0;32;-1;-1;1
118.614|k4b;3799315666660;0;32;-1;-1;1
118.701|k4b;3799317000000;0;32;-1;-1;1
118.801|k4b;3799317666660;0;32;-1;-1;1
118.901|k4b;3799318333330;0;32;-1;-1;1
118.992|k4b;3799319666660;0;32;-1;-1;1
119.092|k4b;3799320333330;0;32;-1;-1;1
119.192|k4b;3799321333330;0;32;-1;-1;1
119.287|k4b;3799322666660;0;32;-1;-1;1
119.387|k4b;3799323333330;0;32;-1;-1;1
119.487|k4b;3799324666660;0;32;-1;-1;1
119.583|k4b;3799326000000;0;32;-1;-1;1
119.683|k4b;3799326666660;0;32;-1;-1;1
119.783|k4b;3799328000000;0;32;-1;-1;1
119.879|k4b;3799328666660;0;32;-1;-1;1
119.979|k4b;3799330000000;0;32;-1;-1;1
120.079|k4b;3799330666660;0;32;-1;-1;1
120.179|k4b;3799332000000;0;32;-1;-1;1
120.279|k4b;3799333333220;0;32;-1;-1;1
120.378|k4b;3799334000000;0;32;-1;-1;1
120.478|k4b;3799335333330;0;32;-1;-1;1
120.571|k4b;3799336000000;0;32;-1;-1;1
120.662|k4b;3799337333330;0;32;-1;-1;1
120.751|k4b;3799338000000;0;32;-1;-1;1
120.834|k4b;3799339333330;0;32;-1;-1;1
120.922|k4b;3799340000000;0;32;-1;-1;1
121.008|k4b;3799340666550;0;32;-1;-1;1
121.096|k4b;3799342000000;0;32;-1;-1;1
121.187|k4b;3799342666660;0;32;-1;-1;1
121.278|k4b;3799343333330;0;32;-1;-1;1
121.368|k4b;3799344000000;0;32;-1;-1;1
121.468|k4b;3799345000000;0;32;-1;-1;1
121.566|k4b;3799346333330;0;32;-1;-1;1
121.653|k4b;3799347000000;0;32;-1;-1;1
121.848|k4b;3799348666660;0;32;-1;-1;1
121.941|k4b;3799350000000;0;32;-1;-1;1
122.034|k4b;3799351333330;0;32;-1;-1;1
122.127|k4b;3799352000000;0;32;-1;-1;1
122.212|k4b;3799352666660;0;32;-1;-1;1
122.297|k4b;3799354000000;0;32;-1;-1;1
122.379|k4b;3799354666660;0;32;-1;-1;1
122.467|k4b;3799355333330;0;32;-1;-1;1
122.561|k4b;3799356666660;0;32;-1;-1;1
122.652|k4b;3799357333330;0;32;-1;-1;1
122.747|k4b;3799358000000;0;32;-1;-1;1
122.835|k4b;3799359000000;0;32;-1;-1;1
122.930|k4b;3799360333330;0;32;-1;-1;1
123.017|k4b;3799361000000;0;32;-1;-1;1
123.109|k4b;3799361666660;0;32;-1;-1;1
123.200|k4b;3799362666660;0;32;-1;-1;1
123.293|k4b;3799364000000;0;32;-1;-1;1
123.393|k4b;3799364666660;0;32;-1;-1;1
123.493|k4b;3799365333330;0;32;-1;-1;1
123.593|k4b;3799366666660;0;32;-1;-1;1
123.693|k4b;3799368000000;0;32;-1;-1;1
123.793|k4b;3799369333330;0;32;-1;-1;1
123.888|k4b;3799370666660;0;32;-1;-1;1
123.988|k4b;3799371333330;0;32;-1;-1;1
124.088|k4b;3799372666660;0;32;-1;-1;1
124.188|k4b;3799373333330;0;32;-1;-1;1
124.284|k4b;3799374666660;0;32;-1;-1;1
124.384|k4b;3799375333330;0;32;-1;-1;1
124.484|k4b;3799376666660;0;32;-1;-1;1
124.583|k4b;3799378000000;0;32;-1;-1;1
124.677|k4b;3799378666660;0;32;-1;-1;1
124.767|k4b;3799380000000;0;32;-1;-1;1
124.864|k4b;3799380666660;0;32;-1;-1;1
124.958|k4b;3799381333330;0;32;-1;-1;1
125.051|k4b;3799382333330;0;32;-1;-1;1
125.151|k4b;3799383666660;0;32;-1;-1;1
125.245|k4b;3799384333220;0;32;-1;-1;1
125.332|k4b;3799385000000;0;32;-1;-1;1
125.426|k4b;3799386333330;0;32;-1;-1;1
125.523|k4b;3799387000000;0;32;-1;-1;1
125.623|k4b;3799388000000;0;32;-1;-1;1
125.723|k4b;3799389333330;0;32;-1;-1;1
125.823|k4b;3799390000000;0;32;-1;-1;1
125.919|k4b;3799391333330;0;32;-1;-1;1
126.010|k4b;3799392000000;0;32;-1;-1;1
126.108|k4b;3799393333330;0;32;-1;-1;1
126.208|k4b;3799394000000;0;32;-1;-1;1
126.304|k4b;3799395333330;0;32;-1;-1;1
126.404|k4b;3799396000000;0;32;-1;-1;1
126.504|k4b;3799397333330;0;32;-1;-1;1
126.600|k4b;3799398000000;0;32;-1;-1;1
126.700|k4b;3799399000000;0;32;-1;-1;1
126.800|k4b;3799400333330;0;32;-1;-1;1
126.893|k4b;3799401666660;0;32;-1;-1;1
126.993|k4b;3799402333330;0;32;-1;-1;1
127.093|k4b;3799403666660;0;32;-1;-1;1
127.188|k4b;3799404333330;0;32;-1;-1;1
127.285|k4b;3799405666660;0;32;-1;-1;1
127.377|k4b;3799406333330;0;32;-1;-1;1
127.477|k4b;3799407666660;0;32;-1;-1;1
127.567|k4b;3799408333330;0;32;-1;-1;1
127.658|k4b;3799409333330;0;32;-1;-1;1
127.749|k4b;3799410666660;0;32;-1;-1;1
127.836|k4b;3799411333330;0;32;-1;-1;1
127.921|k4b;3799412000000;0;32;-1;-1;1
128.013|k4b;3799413333330;0;32;-1;-1;1
128.113|k4b;3799414000000;0;32;-1;-1;1
128.213|k4b;3799414666660;0;32;-1;-1;1
128.311|k4b;3799416000000;0;32;-1;-1;1
128.411|k4b;3799417333330;0;32;-1;-1;1
128.511|k4b;3799418666660;0;32;-1;-1;1
128.611|k4b;3799419333330;0;32;-1;-1;1
128.711|k4b;3799420666550;0;32;-1;-1;1
128.811|k4b;3799422000000;0;32;-1;-1;1
128.911|k4b;3799423333330;0;32;-1;-1;1
129.011|k4b;3799424000000;0;32;-1;-1;1
129.110|k4b;3799425333330;0;32;-1;-1;1
129.210|k4b;3799426666660;0;32;-1;-1;1
129.310|k4b;3799427333330;0;32;-1;-1;1
129.410|k4b;3799428666660;0;32;-1;-1;1
129.510|k4b;3799430000000;0;32;-1;-1;1
129.610|k4b;3799431333330;0;32;-1;-1;1
129.710|k4b;3799432666660;0;32;-1;-1;1
129.810|k4b;3799434000000;0;32;-1;-1;1
129.910|k4b;3799434666660;0;32;-1;-1;1
130.010|k4b;3799436000000;0;32;-1;-1;1
130.110|k4b;3799437333330;0;32;-1;-1;1
130.210|k4b;3799438666660;0;32;-1;-1;1
130.310|k4b;3799440333330;0;32;-1;-1;1
130.410|k4b;3799441000000;0;32;-1;-1;1
130.499|k4b;3799442333330;0;32;-1;-1;1
130.599|k4b;3799443000000;0;32;-1;-1;1
130.699|k4b;3799444333330;0;32;-1;-1;1
130.799|k4b;3799445000000;0;32;-1;-1;1
130.899|k4b;3799446333330;0;32;-1;-1;1
130.999|k4b;3799447000000;0;32;-1;-1;1
131.095|k4b;3799448333330;0;32;-1;-1;1
131.195|k4b;3799449333330;0;32;-1;-1;1
131.295|k4b;3799450666660;0;32;-1;-1;1
131.395|k4b;3799451333330;0;32;-1;-1;1
131.495|k4b;3799453333330;0;32;-1;-1;1
131.587|k4b;3799454000000;0;32;-1;-1;1
131.672|k4b;3799455333330;0;32;-1;-1;1
131.752|k4b;3799456000000;0;32;-1;-1;1
131.841|k4b;3799456666660;0;32;-1;-1;1
131.923|k4b;3799458000000;0;32;-1;-1;1
132.008|k4b;3799458666660;0;32;-1;-1;1
132.090|k4b;3799459333330;0;32;-1;-1;1
132.169|k4b;3799460000000;0;32;-1;-1;1
132.247|k4b;3799460666660;0;32;-1;-1;1
132.323|k4b;3799462000000;0;32;-1;-1;1
132.403|k4b;3799462666660;0;32;-1;-1;1
132.503|k4b;3799463333330;0;32;-1;-1;1
132.591|k4b;3799464000000;0;32;-1;-1;1
132.675|k4b;3799465333330;0;32;-1;-1;1
132.756|k4b;3799466000000;0;32;-1;-1;1
132.841|k4b;3799466666660;0;32;-1;-1;1
132.922|k4b;3799468000000;0;32;-1;-1;1
133.004|k4b;3799468666660;0;32;-1;-1;1
133.084|k4b;3799469333330;0;32;-1;-1;1
133.170|k4b;3799470000000;0;32;-1;-1;1
133.318|k4b;3799471333330;0;32;-1;-1;1
133.399|k4b;3799472666660;0;32;-1;-1;1
133.479|k4b;3799473333330;0;32;-1;-1;1
133.561|k4b;3799474000000;0;32;-1;-1;1
133.644|k4b;3799474666660;0;32;-1;-1;1
133.729|k4b;3799475333330;0;32;-1;-1;1
133.815|k4b;3799476666660;0;32;-1;-1;1
133.903|k4b;3799477333330;0;32;-1;-1;1
133.984|k4b;3799478000000;0;32;-1;-1;1
134.070|k4b;3799479333330;0;32;-1;-1;1
134.150|k4b;3799480000000;0;32;-1;-1;1
134.228|k4b;3799480666660;0;32;-1;-1;1
134.305|k4b;3799481333330;0;32;-1;-1;1
134.384|k4b;3799482666660;0;32;-1;-1;1
134.466|k4b;3799483333330;0;32;-1;-1;1
134.550|k4b;3799484000000;0;32;-1;-1;1
134.626|k4b;3799484666660;0;32;-1;-1;1
134.690|k4b;3799485333330;0;32;-1;-1;1
134.757|k4b;3799486000000;0;32;-1;-1;1
134.825|k4b;3799486666660;0;32;-1;-1;1
134.891|k4b;3799487333330;0;32;-1;-1;1
134.957|k4b;3799488000000;0;32;-1;-1;1
135.025|k4b;3799488666660;0;32;-1;-1;1
135.091|k4b;3799489333330;0;32;-1;-1;1
135.157|k4b;3799490000000;0;32;-1;-1;1
135.221|k4b;3799490666660;0;32;-1;-1;1
135.284|k4b;3799491333330;0;32;-1;-1;1
135.352|k4b;3799492000000;0;32;-1;-1;1
135.436|k4b;3799492666660;0;32;-1;-1;1
135.536|k4b;3799493333330;0;32;-1;-1;1
135.621|k4b;3799494666660;0;32;-1;-1;1
135.687|k4b;3799496000000;0;32;-1;-1;1
135.758|k4b;3799496666660;0;32;-1;-1;1
135.826|k4b;3799497333330;0;32;-1;-1;1
135.895|k4b;3799498000000;0;32;-1;-1;1
135.962|k4b;3799498666660;0;32;-1;-1;1
136.035|k4b;3799499333330;0;32;-1;-1;1
136.125|k4b;3799500000000;0;32;-1;-1;1
136.200|k4b;3799500666660;0;32;-1;-1;1
136.271|k4b;3799501333330;0;32;-1;-1;1
136.337|k4b;3799502000000;0;32;-1;-1;1
136.488|k4b;3799503333330;0;32;-1;-1;1
136.565|k4b;3799504666660;0;32;-1;-1;1
136.643|k4b;3799505333330;0;32;-1;-1;1
136.725|k4b;3799506000000;0;32;-1;-1;1
136.799|k4b;3799506666660;0;32;-1;-1;1
136.881|k4b;3799507333330;0;32;-1;-1;1
136.970|k4b;3799508666660;0;32;-1;-1;1
137.047|k4b;3799509333330;0;32;-1;-1;1
137.112|k4b;3799510000000;0;32;-1;-1;1
137.181|k4b;3799510666660;0;32;-1;-1;1
137.256|k4b;3799511333330;0;32;-1;-1;1
137.323|k4b;3799512000000;0;32;-1;-1;1
137.399|k4b;3799512666660;0;32;-1;-1;1
137.466|k4b;3799513333330;0;32;-1;-1;1
137.535|k4b;3799514000000;0;32;-1;-1;1
137.607|k4b;3799514666660;0;32;-1;-1;1
137.672|k4b;3799515333220;0;32;-1;-1;1
137.746|k4b;3799516333330;0;32;-1;-1;1
137.846|k4b;3799517000000;0;32;-1;-1;1
137.946|k4b;3799517666660;0;32;-1;-1;1
138.039|k4b;3799519000000;0;32;-1;-1;1
138.132|k4b;3799520333330;0;32;-1;-1;1
138.228|k4b;3799521000000;0;32;-1;-1;1
138.311|k4b;3799521666660;0;32;-1;-1;1
138.396|k4b;3799523000000;0;32;-1;-1;1
138.475|k4b;3799523666660;0;32;-1;-1;1
138.554|k4b;3799524333330;0;32;-1;-1;1
138.638|k4b;3799525666660;0;32;-1;-1;1
138.722|k4b;3799526333330;0;32;-1;-1;1
138.811|k4b;3799527000000;0;32;-1;-1;1
138.894|k4b;3799527666660;0;32;-1;-1;1
138.975|k4b;3799528333330;0;32;-1;-1;1
139.065|k4b;3799529333330;0;32;-1;-1;1
139.144|k4b;3799530666660;0;32;-1;-1;1
139.227|k4b;3799531333330;0;32;-1;-1;1
139.314|k4b;3799532000000;0;32;-1;-1;1
139.405|k4b;3799532666660;0;32;-1;-1;1
139.501|k4b;3799534000000;0;32;-1;-1;1
139.585|k4b;3799534666660;0;32;-1;-1;1
139.677|k4b;3799536000000;0;32;-1;-1;1
139.762|k4b;3799536666660;0;32;-1;-1;1
139.844|k4b;3799537333330;0;32;-1;-1;1
139.922|k4b;3799538000000;0;32;-1;-1;1
140.003|k4b;3799539333330;0;32;-1;-1;1
140.094|k4b;3799540000000;0;32;-1;-1;1
140.194|k4b;3799540666660;0;32;-1;-1;1
140.294|k4b;3799541333330;0;32;-1;-1;1
140.394|k4b;3799542666660;0;32;-1;-1;1
140.494|k4b;3799543333330;0;32;-1;-1;1
140.594|k4b;3799544666660;0;32;-1;-1;1
140.679|k4b;3799546000000;0;32;-1;-1;1
140.779|k4b;3799546666660;0;32;-1;-1;1
140.864|k4b;3799548000000;0;32;-1;-1;1
140.943|k4b;3799548666660;0;32;-1;-1;1
141.022|k4b;3799549333330;0;32;-1;-1;1
141.103|k4b;3799550000000;0;32;-1;-1;1
141.182|k4b;3799551333330;0;32;-1;-1;1
141.263|k4b;3799552000000;0;32;-1;-1;1
141.342|k4b;3799552666660;0;32;-1;-1;1
141.420|k4b;3799554000000;0;32;-1;-1;1
141.505|k4b;3799554666660;0;32;-1;-1;1
141.600|k4b;3799555333330;0;32;-1;-1;1
141.700|k4b;3799556000000;0;32;-1;-1;1
141.800|k4b;3799556666660;0;32;-1;-1;1
141.891|k4b;3799558000000;0;32;-1;-1;1
141.991|k4b;3799559333330;0;32;-1;-1;1
142.091|k4b;3799560666660;0;32;-1;-1;1
142.188|k4b;3799562000000;0;32;-1;-1;1
142.288|k4b;3799563333330;0;32;-1;-1;1
142.388|k4b;3799564000000;0;32;-1;-1;1
142.488|k4b;3799565333330;0;32;-1;-1;1
142.588|k4b;3799566666660;0;32;-1;-1;1
142.688|k4b;3799568000000;0;32;-1;-1;1
142.788|k4b;3799568666660;0;32;-1;-1;1
142.888|k4b;3799570000000;0;32;-1;-1;1
142.988|k4b;3799571333330;0;32;-1;-1;1
143.088|k4b;3799572000000;0;32;-1;-1;1
143.188|k4b;3799574000000;0;32;-1;-1;1
143.288|k4b;3799574666660;0;32;-1;-1;1
143.388|k4b;3799576333330;0;32;-1;-1;1
143.488|k4b;3799577666660;0;32;-1;-1;1
143.588|k4b;3799578333330;0;32;-1;-1;1
143.682|k4b;3799579666660;0;32;-1;-1;1
143.782|k4b;3799580999880;0;32;-1;-1;1
143.882|k4b;3799581666660;0;32;-1;-1;1
143.982|k4b;3799583666660;0;32;-1;-1;1
144.082|k4b;3799584333330;0;32;-1;-1;1
144.182|k4b;3799585666660;0;32;-1;-1;1
144.276|k4b;3799587000000;0;32;-1;-1;1
144.376|k4b;3799587666660;0;32;-1;-1;1
144.476|k4b;3799589000000;0;32;-1;-1;1
144.576|k4b;3799590000000;0;32;-1;-1;1
144.652|k4b;3799591333330;0;32;-1;-1;1
144.740|k4b;3799592666660;0;32;-1;-1;1
144.840|k4b;3799593333330;0;32;-1;-1;1
144.933|k4b;3799594000000;0;32;-1;-1;1
144.998|k4b;3799595333330;0;32;-1;-1;1
145.072|k4b;3799596000000;0;32;-1;-1;1
145.151|k4b;3799596666660;0;32;-1;-1;1
145.233|k4b;3799597333330;0;32;-1;-1;1
145.299|k4b;3799598000000;0;32;-1;-1;1
145.368|k4b;3799599000000;0;32;-1;-1;1
145.441|k4b;3799599666660;0;32;-1;-1;1
145.509|k4b;3799600333330;0;32;-1;-1;1
145.574|k4b;3799601000000;0;32;-1;-1;1
145.667|k4b;3799601666660;0;32;-1;-1;1
145.747|k4b;3799602333330;0;32;-1;-1;1
145.828|k4b;3799603666660;0;32;-1;-1;1
145.896|k4b;3799604333330;0;32;-1;-1;1
145.970|k4b;3799605000000;0;32;-1;-1;1
146.044|k4b;3799605666660;0;32;-1;-1;1
146.117|k4b;3799606333330;0;32;-1;-1;1
146.197|k4b;3799607000000;0;32;-1;-1;1
146.275|k4b;3799607666660;0;32;-1;-1;1
146.342|k4b;3799608666660;0;32;-1;-1;1
146.412|k4b;3799609333330;0;32;-1;-1;1
146.486|k4b;3799609999880;0;32;-1;-1;1
146.554|k4b;3799610666660;0;32;-1;-1;1
146.709|k4b;3799612000000;0;32;-1;-1;1
146.776|k4b;3799613333330;0;32;-1;-1;1
146.845|k4b;3799614000000;0;32;-1;-1;1
146.920|k4b;3799614666660;0;32;-1;-1;1
146.988|k4b;3799615333330;0;32;-1;-1;1
147.056|k4b;3799616000000;0;32;-1;-1;1
147.136|k4b;3799616666660;0;32;-1;-1;1
147.207|k4b;3799617333220;0;32;-1;-1;1
147.289|k4b;3799618000000;0;32;-1;-1;1
147.373|k4b;3799618666660;0;32;-1;-1;1
147.458|k4b;3799620000000;0;32;-1;-1;1
147.525|k4b;3799620666660;0;32;-1;-1;1
147.607|k4b;3799621333330;0;32;-1;-1;1
147.681|k4b;3799622000000;0;32;-1;-1;1
147.761|k4b;3799622666660;0;32;-1;-1;1
147.829|k4b;3799623333330;0;32;-1;-1;1
147.978|k4b;3799625000000;0;32;-1;-1;1
148.051|k4b;3799625666660;0;32;-1;-1;1
148.127|k4b;3799626333330;0;32;-1;-1;1
148.211|k4b;3799627000000;0;32;-1;-1;1
148.282|k4b;3799628333330;0;32;-1;-1;1
148.359|k4b;3799628666660;0;32;-1;-1;1
148.445|k4b;3799629333330;0;32;-1;-1;1
148.545|k4b;3799630666660;0;32;-1;-1;1
148.642|k4b;3799631333330;0;32;-1;-1;1
148.718|k4b;3799632666660;0;32;-1;-1;1
148.818|k4b;3799634000000;0;32;-1;-1;1
148.905|k4b;3799634666660;0;32;-1;-1;1
149.005|k4b;3799636000000;0;32;-1;-1;1
149.105|k4b;3799636666660;0;32;-1;-1;1
149.205|k4b;3799638000000;0;32;-1;-1;1
149.283|k4b;3799638666660;0;32;-1;-1;1
149.380|k4b;3799640000000;0;32;-1;-1;1
149.452|k4b;3799640666660;0;32;-1;-1;1
149.613|k4b;3799642000000;0;32;-1;-1;1
149.713|k4b;3799643333330;0;32;-1;-1;1
149.799|k4b;3799644000000;0;32;-1;-1;1
149.899|k4b;3799645333330;0;32;-1;-1;1
149.981|k4b;3799646000000;0;32;-1;-1;1
150.081|k4b;3799647333330;0;32;-1;-1;1
150.155|k4b;3799648000000;0;32;-1;-1;1
150.249|k4b;3799649333330;0;32;-1;-1;1
150.322|k4b;3799650000000;0;32;-1;-1;1
150.420|k4b;3799650666660;0;32;-1;-1;1
150.508|k4b;3799651333330;0;32;-1;-1;1
150.608|k4b;3799652666660;0;32;-1;-1;1
150.707|k4b;3799653333330;0;32;-1;-1;1
150.807|k4b;3799654666660;0;32;-1;-1;1
150.907|k4b;3799656000000;0;32;-1;-1;1
151.007|k4b;3799656666660;0;32;-1;-1;1
151.088|k4b;3799658000000;0;32;-1;-1;1
151.181|k4b;3799659333330;0;32;-1;-1;1
151.249|k4b;3799660000000;0;32;-1;-1;1
151.341|k4b;3799660666660;0;32;-1;-1;1
151.418|k4b;3799661333330;0;32;-1;-1;1
151.509|k4b;3799662666660;0;32;-1;-1;1
151.574|k4b;3799663333330;0;32;-1;-1;1
151.669|k4b;3799664000000;0;32;-1;-1;1
151.744|k4b;3799664666660;0;32;-1;-1;1
151.844|k4b;3799666000000;0;32;-1;-1;1
151.933|k4b;3799666666660;0;32;-1;-1;1
152.033|k4b;3799668000000;0;32;-1;-1;1
152.133|k4b;3799668666660;0;32;-1;-1;1
152.233|k4b;3799670000000;0;32;-1;-1;1
152.329|k4b;3799671333330;0;32;-1;-1;1
152.429|k4b;3799672666660;0;32;-1;-1;1
152.529|k4b;3799673333330;0;32;-1;-1;1
152.629|k4b;3799674666660;0;32;-1;-1;1
152.703|k4b;3799675333330;0;32;-1;-1;1
152.793|k4b;3799676666660;0;32;-1;-1;1
152.860|k4b;3799677333330;0;32;-1;-1;1
152.944|k4b;3799678000000;0;32;-1;-1;1
153.041|k4b;3799678666660;0;32;-1;-1;1
153.136|k4b;3799679333330;0;32;-1;-1;1
153.236|k4b;3799680666660;0;32;-1;-1;1
153.328|k4b;3799681333330;0;32;-1;-1;1
153.397|k4b;3799682666660;0;32;-1;-1;1
153.480|k4b;3799683333330;0;32;-1;-1;1
153.545|k4b;3799684000000;0;32;-1;-1;1
153.614|k4b;3799685333330;0;32;-1;-1;1
153.694|k4b;3799686000000;0;32;-1;-1;1
153.762|k4b;3799686666660;0;32;-1;-1;1
153.830|k4b;3799687333330;0;32;-1;-1;1
153.910|k4b;3799688000000;0;32;-1;-1;1
153.978|k4b;3799688666660;0;32;-1;-1;1
154.046|k4b;3799689333330;0;32;-1;-1;1
154.137|k4b;3799690000000;0;32;-1;-1;1
154.237|k4b;3799690666660;0;32;-1;-1;1
154.333|k4b;3799691333330;0;32;-1;-1;1
154.399|k4b;3799692666660;0;32;-1;-1;1
154.481|k4b;3799694000000;0;32;-1;-1;1
154.553|k4b;3799694666660;0;32;-1;-1;1
154.638|k4b;3799695333330;0;32;-1;-1;1
154.706|k4b;3799696000000;0;32;-1;-1;1
154.795|k4b;3799696666660;0;32;-1;-1;1
154.862|k4b;3799697333330;0;32;-1;-1;1
154.943|k4b;3799698000000;0;32;-1;-1;1
155.011|k4b;3799699333330;0;32;-1;-1;1
155.084|k4b;3799700000000;0;32;-1;-1;1
155.168|k4b;3799700666660;0;32;-1;-1;1
155.237|k4b;3799701333330;0;32;-1;-1;1
155.323|k4b;3799702000000;0;32;-1;-1;1
155.390|k4b;3799702666660;0;32;-1;-1;1
155.471|k4b;3799703333330;0;32;-1;-1;1
155.537|k4b;3799704000000;0;32;-1;-1;1
155.682|k4b;3799705333330;0;32;-1;-1;1
155.747|k4b;3799706666660;0;32;-1;-1;1
155.815|k4b;3799707333330;0;32;-1;-1;1
155.895|k4b;3799708000000;0;32;-1;-1;1
155.964|k4b;3799708666660;0;32;-1;-1;1
156.042|k4b;3799709333330;0;32;-1;-1;1
156.132|k4b;3799710000000;0;32;-1;-1;1
156.207|k4b;3799710666660;0;32;-1;-1;1
156.300|k4b;3799711999880;0;32;-1;-1;1
156.375|k4b;3799712666660;0;32;-1;-1;1
156.472|k4b;3799713333330;0;32;-1;-1;1
156.550|k4b;3799714666660;0;32;-1;-1;1
156.647|k4b;3799715333330;0;32;-1;-1;1
156.742|k4b;3799716000000;0;32;-1;-1;1
156.837|k4b;3799716666660;0;32;-1;-1;1
156.919|k4b;3799718000000;0;32;-1;-1;1
156.999|k4b;3799718666660;0;32;-1;-1;1
157.067|k4b;3799719333220;0;32;-1;-1;1
157.208|k4b;3799720666660;0;32;-1;-1;1
157.275|k4b;3799721333330;0;32;-1;-1;1
157.343|k4b;3799722666660;0;32;-1;-1;1
157.424|k4b;3799723333330;0;32;-1;-1;1
157.491|k4b;3799724000000;0;32;-1;-1;1
157.559|k4b;3799724666660;0;32;-1;-1;1
157.639|k4b;3799725333330;0;32;-1;-1;1
157.708|k4b;3799726000000;0;32;-1;-1;1
157.778|k4b;3799726666660;0;32;-1;-1;1
157.857|k4b;3799727333330;0;32;-1;-1;1
157.925|k4b;3799728000000;0;32;-1;-1;1
157.993|k4b;3799728666660;0;32;-1;-1;1
158.135|k4b;3799730000000;0;32;-1;-1;1
158.206|k4b;3799731333330;0;32;-1;-1;1
158.293|k4b;3799732000000;0;32;-1;-1;1
158.362|k4b;3799732666660;0;32;-1;-1;1
158.462|k4b;3799733333330;0;32;-1;-1;1
158.556|k4b;3799734000000;0;32;-1;-1;1
158.656|k4b;3799735333330;0;32;-1;-1;1
158.756|k4b;3799736000000;0;32;-1;-1;1
158.849|k4b;3799737333330;0;32;-1;-1;1
158.949|k4b;3799738333330;0;32;-1;-1;1
159.049|k4b;3799739000000;0;32;-1;-1;1
159.149|k4b;3799740666660;0;32;-1;-1;1
159.244|k4b;3799741333330;0;32;-1;-1;1
159.313|k4b;3799742666660;0;32;-1;-1;1
159.397|k4b;3799743333330;0;32;-1;-1;1
159.467|k4b;3799744000000;0;32;-1;-1;1
159.551|k4b;3799744666660;0;32;-1;-1;1
159.622|k4b;3799745333330;0;32;-1;-1;1
159.711|k4b;3799746666660;0;32;-1;-1;1
159.784|k4b;3799747333330;0;32;-1;-1;1
159.875|k4b;3799748000000;0;32;-1;-1;1
159.975|k4b;3799748666660;0;32;-1;-1;1
160.061|k4b;3799749333330;0;32;-1;-1;1
160.131|k4b;3799750666660;0;32;-1;-1;1
160.227|k4b;3799751333330;0;32;-1;-1;1
160.304|k4b;3799752000000;0;32;-1;-1;1
160.389|k4b;3799753333330;0;32;-1;-1;1
160.470|k4b;3799754000000;0;32;-1;-1;1
160.564|k4b;3799754666660;0;32;-1;-1;1
160.634|k4b;3799756000000;0;32;-1;-1;1
160.726|k4b;3799756666660;0;32;-1;-1;1
160.797|k4b;3799757333330;0;32;-1;-1;1
160.884|k4b;3799758000000;0;32;-1;-1;1
160.950|k4b;3799758666660;0;32;-1;-1;1
161.036|k4b;3799760000000;0;32;-1;-1;1
161.104|k4b;3799760666660;0;32;-1;-1;1
161.185|k4b;3799761000000;0;32;-1;-1;1
161.255|k4b;3799762333330;0;32;-1;-1;1
161.340|k4b;3799762999880;0;32;-1;-1;1
161.412|k4b;3799763666660;0;32;-1;-1;1
161.498|k4b;3799764333330;0;32;-1;-1;1
161.567|k4b;3799765000000;0;32;-1;-1;1
161.715|k4b;3799766333330;0;32;-1;-1;1
161.788|k4b;3799767666660;0;32;-1;-1;1
161.868|k4b;3799768333330;0;32;-1;-1;1
161.936|k4b;3799769000000;0;32;-1;-1;1
162.005|k4b;3799769666660;0;32;-1;-1;1
162.087|k4b;3799770333330;0;32;-1;-1;1
162.155|k4b;3799771000000;0;32;-1;-1;1
162.225|k4b;3799771666660;0;32;-1;-1;1
162.316|k4b;3799772333330;0;32;-1;-1;1
162.416|k4b;3799773000000;0;32;-1;-1;1
162.516|k4b;3799774333330;0;32;-1;-1;1
162.616|k4b;3799775000000;0;32;-1;-1;1
162.705|k4b;3799776333330;0;32;-1;-1;1
162.805|k4b;3799777666660;0;32;-1;-1;1
162.887|k4b;3799778333330;0;32;-1;-1;1
162.968|k4b;3799779000000;0;32;-1;-1;1
163.061|k4b;3799780333330;0;32;-1;-1;1
163.153|k4b;3799781000000;0;32;-1;-1;1
163.245|k4b;3799782000000;0;32;-1;-1;1
163.338|k4b;3799782666660;0;32;-1;-1;1
163.438|k4b;3799783333330;0;32;-1;-1;1
163.538|k4b;3799784666660;0;32;-1;-1;1
163.638|k4b;3799785333330;0;32;-1;-1;1
163.736|k4b;3799786666660;0;32;-1;-1;1
163.832|k4b;3799788000000;0;32;-1;-1;1
163.900|k4b;3799788666660;0;32;-1;-1;1
163.992|k4b;3799790000000;0;32;-1;-1;1
164.062|k4b;3799790666660;0;32;-1;-1;1
164.145|k4b;3799791333330;0;32;-1;-1;1
164.214|k4b;3799792000000;0;32;-1;-1;1
164.299|k4b;3799792666660;0;32;-1;-1;1
164.366|k4b;3799793333330;0;32;-1;-1;1
164.509|k4b;3799794666660;0;32;-1;-1;1
164.579|k4b;3799796000000;0;32;-1;-1;1
164.662|k4b;3799796666660;0;32;-1;-1;1
164.747|k4b;3799797333330;0;32;-1;-1;1
164.837|k4b;3799798000000;0;32;-1;-1;1
164.908|k4b;3799798666660;0;32;-1;-1;1
164.993|k4b;3799800000000;0;32;-1;-1;1
165.062|k4b;3799800666660;0;32;-1;-1;1
165.145|k4b;3799801333330;0;32;-1;-1;1
165.215|k4b;3799802000000;0;32;-1;-1;1
165.297|k4b;3799802666660;0;32;-1;-1;1
165.365|k4b;3799803333330;0;32;-1;-1;1
165.447|k4b;3799804000000;0;32;-1;-1;1
165.515|k4b;3799805333330;0;32;-1;-1;1
165.584|k4b;3799806000000;0;32;-1;-1;1
165.664|k4b;3799806666550;0;32;-1;-1;1
165.730|k4b;3799807333330;0;32;-1;-1;1
165.798|k4b;3799808000000;0;32;-1;-1;1
165.880|k4b;3799808666660;0;32;-1;-1;1
165.951|k4b;3799809333330;0;32;-1;-1;1
166.034|k4b;3799810000000;0;32;-1;-1;1
166.106|k4b;3799810666660;0;32;-1;-1;1
166.191|k4b;3799811333330;0;32;-1;-1;1
166.261|k4b;3799812666660;0;32;-1;-1;1
166.346|k4b;3799813333330;0;32;-1;-1;1
166.416|k4b;3799813999880;0;32;-1;-1;1
166.500|k4b;3799814666660;0;32;-1;-1;1
166.567|k4b;3799815333330;0;32;-1;-1;1
166.707|k4b;3799816666660;0;32;-1;-1;1
166.775|k4b;3799818000000;0;32;-1;-1;1
166.859|k4b;3799818666660;0;32;-1;-1;1
166.927|k4b;3799819333330;0;32;-1;-1;1
167.012|k4b;3799820000000;0;32;-1;-1;1
167.081|k4b;3799820666660;0;32;-1;-1;1
167.165|k4b;3799821333330;0;32;-1;-1;1
167.235|k4b;3799822000000;0;32;-1;-1;1
167.316|k4b;3799822666660;0;32;-1;-1;1
167.396|k4b;3799824000000;0;32;-1;-1;1
167.478|k4b;3799824666660;0;32;-1;-1;1
167.547|k4b;3799825333330;0;32;-1;-1;1
167.632|k4b;3799826000000;0;32;-1;-1;1
167.732|k4b;3799826666660;0;32;-1;-1;1
167.832|k4b;3799828000000;0;32;-1;-1;1
167.930|k4b;3799828666660;0;32;-1;-1;1
168.011|k4b;3799830000000;0;32;-1;-1;1
168.082|k4b;3799831333330;0;32;-1;-1;1
168.167|k4b;3799832000000;0;32;-1;-1;1
168.243|k4b;3799832666660;0;32;-1;-1;1
168.332|k4b;3799833333330;0;32;-1;-1;1
168.405|k4b;3799834000000;0;32;-1;-1;1
168.495|k4b;3799834666660;0;32;-1;-1;1
168.572|k4b;3799835666660;0;32;-1;-1;1
168.666|k4b;3799837000000;0;32;-1;-1;1
168.763|k4b;3799837666660;0;32;-1;-1;1
168.857|k4b;3799838333330;0;32;-1;-1;1
168.931|k4b;3799839666660;0;32;-1;-1;1
169.027|k4b;3799840333330;0;32;-1;-1;1
169.100|k4b;3799841000000;0;32;-1;-1;1
169.188|k4b;3799842333330;0;32;-1;-1;1
169.265|k4b;3799842999880;0;32;-1;-1;1
169.360|k4b;3799843666660;0;32;-1;-1;1
169.434|k4b;3799844333330;0;32;-1;-1;1
169.527|k4b;3799845666660;0;32;-1;-1;1
169.604|k4b;3799846333330;0;32;-1;-1;1
169.704|k4b;3799847000000;0;32;-1;-1;1
169.778|k4b;3799847666660;0;32;-1;-1;1
169.867|k4b;3799849000000;0;32;-1;-1;1
169.937|k4b;3799849666660;0;32;-1;-1;1
170.027|k4b;3799850333220;0;32;-1;-1;1
170.106|k4b;3799851000000;0;32;-1;-1;1
170.278|k4b;3799852666660;0;32;-1;-1;1
170.378|k4b;3799854000000;0;32;-1;-1;1
170.466|k4b;3799854666660;0;32;-1;-1;1
170.559|k4b;3799855333330;0;32;-1;-1;1
170.630|k4b;3799856666660;0;32;-1;-1;1
170.714|k4b;3799857333330;0;32;-1;-1;1
170.784|k4b;3799858000000;0;32;-1;-1;1
170.869|k4b;3799858666660;0;32;-1;-1;1
170.940|k4b;3799860000000;0;32;-1;-1;1
171.030|k4b;3799860666660;0;32;-1;-1;1
171.097|k4b;3799861333330;0;32;-1;-1;1
171.180|k4b;3799862000000;0;32;-1;-1;1
171.249|k4b;3799862666660;0;32;-1;-1;1
171.332|k4b;3799863333330;0;32;-1;-1;1
171.401|k4b;3799864666660;0;32;-1;-1;1
171.487|k4b;3799865333330;0;32;-1;-1;1
171.573|k4b;3799866000000;0;32;-1;-1;1
171.659|k4b;3799866666660;0;32;-1;-1;1
171.727|k4b;3799867333330;0;32;-1;-1;1
171.818|k4b;3799868666660;0;32;-1;-1;1
171.891|k4b;3799869333330;0;32;-1;-1;1
171.982|k4b;3799870000000;0;32;-1;-1;1
172.057|k4b;3799870666660;0;32;-1;-1;1
172.144|k4b;3799871333330;0;32;-1;-1;1
172.217|k4b;3799872666660;0;32;-1;-1;1
172.301|k4b;3799873333330;0;32;-1;-1;1
172.372|k4b;3799874000000;0;32;-1;-1;1
172.458|k4b;3799874666660;0;32;-1;-1;1
172.527|k4b;3799875333330;0;32;-1;-1;1
172.612|k4b;3799876666660;0;32;-1;-1;1
172.681|k4b;3799877333330;0;32;-1;-1;1
172.771|k4b;3799878000000;0;32;-1;-1;1
172.848|k4b;3799878666660;0;32;-1;-1;1
