%YAML 1.1
%TAG !u! tag:unity3d.com,2011:
--- !u!1 &8388902539531575895
GameObject:
  m_ObjectHideFlags: 0
  m_CorrespondingSourceObject: {fileID: 0}
  m_PrefabInstance: {fileID: 0}
  m_PrefabAsset: {fileID: 0}
  serializedVersion: 6
  m_Component:
  - component: {fileID: 8388902539531575888}
  - component: {fileID: 8388902539531575889}
  m_Layer: 0
  m_Name: Torus_Object_Rigid
  m_TagString: Untagged
  m_Icon: {fileID: 0}
  m_NavMeshLayer: 0
  m_StaticEditorFlags: 0
  m_IsActive: 1
--- !u!4 &8388902539531575888
Transform:
  m_ObjectHideFlags: 0
  m_CorrespondingSourceObject: {fileID: 0}
  m_PrefabInstance: {fileID: 0}
  m_PrefabAsset: {fileID: 0}
  m_GameObject: {fileID: 8388902539531575895}
  m_LocalRotation: {x: 0, y: 0, z: 0, w: 1}
  m_LocalPosition: {x: -1.3225482, y: -0.06758416, z: 0.58863497}
  m_LocalScale: {x: 1, y: 1, z: 1}
  m_Children:
  - {fileID: 8388902539614547379}
  m_Father: {fileID: 0}
  m_RootOrder: 0
  m_LocalEulerAnglesHint: {x: 0, y: 0, z: 0}
--- !u!54 &8388902539531575889
Rigidbody:
  m_ObjectHideFlags: 0
  m_CorrespondingSourceObject: {fileID: 0}
  m_PrefabInstance: {fileID: 0}
  m_PrefabAsset: {fileID: 0}
  m_GameObject: {fileID: 8388902539531575895}
  serializedVersion: 2
  m_Mass: 1
  m_Drag: 0
  m_AngularDrag: 0.05
  m_UseGravity: 1
  m_IsKinematic: 0
  m_Interpolate: 0
  m_Constraints: 0
  m_CollisionDetection: 0
--- !u!64 &8388902539614943022
MeshCollider:
  m_ObjectHideFlags: 0
  m_CorrespondingSourceObject: {fileID: 0}
  m_PrefabInstance: {fileID: 0}
  m_PrefabAsset: {fileID: 0}
  m_GameObject: {fileID: 8388902539614974355}
  m_Material: {fileID: 0}
  m_IsTrigger: 0
  m_Enabled: 1
  serializedVersion: 3
  m_Convex: 1
  m_CookingOptions: 14
  m_Mesh: {fileID: 4300000, guid: c239385dbe97c3144823b295ca1b3ab5, type: 3}
--- !u!1001 &8388902539614943027
PrefabInstance:
  m_ObjectHideFlags: 0
  serializedVersion: 2
  m_Modification:
    m_TransformParent: {fileID: 8388902539531575888}
    m_Modifications:
    - target: {fileID: 100000, guid: c239385dbe97c3144823b295ca1b3ab5, type: 3}
      propertyPath: m_Name
      value: torus
      objectReference: {fileID: 0}
    - target: {fileID: 400000, guid: c239385dbe97c3144823b295ca1b3ab5, type: 3}
      propertyPath: m_LocalPosition.x
      value: 0
      objectReference: {fileID: 0}
    - target: {fileID: 400000, guid: c239385dbe97c3144823b295ca1b3ab5, type: 3}
      propertyPath: m_LocalPosition.y
      value: 0
      objectReference: {fileID: 0}
    - target: {fileID: 400000, guid: c239385dbe97c3144823b295ca1b3ab5, type: 3}
      propertyPath: m_LocalPosition.z
      value: 0
      objectReference: {fileID: 0}
    - target: {fileID: 400000, guid: c239385dbe97c3144823b295ca1b3ab5, type: 3}
      propertyPath: m_LocalRotation.x
      value: -0.7071068
      objectReference: {fileID: 0}
    - target: {fileID: 400000, guid: c239385dbe97c3144823b295ca1b3ab5, type: 3}
      propertyPath: m_LocalRotation.y
      value: -0
      objectReference: {fileID: 0}
    - target: {fileID: 400000, guid: c239385dbe97c3144823b295ca1b3ab5, type: 3}
      propertyPath: m_LocalRotation.z
      value: -0
      objectReference: {fileID: 0}
    - target: {fileID: 400000, guid: c239385dbe97c3144823b295ca1b3ab5, type: 3}
      propertyPath: m_LocalRotation.w
      value: 0.7071068
      objectReference: {fileID: 0}
    - target: {fileID: 400000, guid: c239385dbe97c3144823b295ca1b3ab5, type: 3}
      propertyPath: m_RootOrder
      value: 0
      objectReference: {fileID: 0}
    - target: {fileID: 400000, guid: c239385dbe97c3144823b295ca1b3ab5, type: 3}
      propertyPath: m_LocalEulerAnglesHint.x
      value: 0
      objectReference: {fileID: 0}
    - target: {fileID: 400000, guid: c239385dbe97c3144823b295ca1b3ab5, type: 3}
      propertyPath: m_LocalEulerAnglesHint.y
      value: 0
      objectReference: {fileID: 0}
    - target: {fileID: 400000, guid: c239385dbe97c3144823b295ca1b3ab5, type: 3}
      propertyPath: m_LocalEulerAnglesHint.z
      value: 0
      objectReference: {fileID: 0}
    - target: {fileID: 2300000, guid: c239385dbe97c3144823b295ca1b3ab5, type: 3}
      propertyPath: m_Materials.Array.data[0]
      value: 
      objectReference: {fileID: 2100000, guid: 1809554bd89d02345b8142dd03fe50b3, type: 2}
    m_RemovedComponents: []
  m_SourcePrefab: {fileID: 100100000, guid: c239385dbe97c3144823b295ca1b3ab5, type: 3}
--- !u!1 &8388902539614974355 stripped
GameObject:
  m_CorrespondingSourceObject: {fileID: 100000, guid: c239385dbe97c3144823b295ca1b3ab5,
    type: 3}
  m_PrefabInstance: {fileID: 8388902539614943027}
  m_PrefabAsset: {fileID: 0}
--- !u!4 &8388902539614547379 stripped
Transform:
  m_CorrespondingSourceObject: {fileID: 400000, guid: c239385dbe97c3144823b295ca1b3ab5,
    type: 3}
  m_PrefabInstance: {fileID: 8388902539614943027}
  m_PrefabAsset: {fileID: 0}
