%YAML 1.1
%TAG !u! tag:unity3d.com,2011:
--- !u!1 &8717072812861624221
GameObject:
  m_ObjectHideFlags: 0
  m_CorrespondingSourceObject: {fileID: 0}
  m_PrefabInstance: {fileID: 0}
  m_PrefabAsset: {fileID: 0}
  serializedVersion: 6
  m_Component:
  - component: {fileID: 8717072812861624220}
  - component: {fileID: 8433703459252163043}
  m_Layer: 0
  m_Name: DEFORM MESH
  m_TagString: Untagged
  m_Icon: {fileID: 0}
  m_NavMeshLayer: 0
  m_StaticEditorFlags: 0
  m_IsActive: 1
--- !u!4 &8717072812861624220
Transform:
  m_ObjectHideFlags: 0
  m_CorrespondingSourceObject: {fileID: 0}
  m_PrefabInstance: {fileID: 0}
  m_PrefabAsset: {fileID: 0}
  m_GameObject: {fileID: 8717072812861624221}
  m_LocalRotation: {x: 0, y: 0, z: 0, w: 1}
  m_LocalPosition: {x: 0, y: 0, z: 0}
  m_LocalScale: {x: 1, y: 1, z: 1}
  m_Children:
  - {fileID: 3781285066203214579}
  m_Father: {fileID: 0}
  m_RootOrder: 0
  m_LocalEulerAnglesHint: {x: 0, y: 0, z: 0}
--- !u!114 &8433703459252163043
MonoBehaviour:
  m_ObjectHideFlags: 0
  m_CorrespondingSourceObject: {fileID: 0}
  m_PrefabInstance: {fileID: 0}
  m_PrefabAsset: {fileID: 0}
  m_GameObject: {fileID: 8717072812861624221}
  m_Enabled: 1
  m_EditorHideFlags: 0
  m_Script: {fileID: 11500000, guid: 3a948ef78fc17814583d6ec17a6a95eb, type: 3}
  m_Name: 
  m_EditorClassIdentifier: 
  rightShoulder: {fileID: 0}
  leftShoulder: {fileID: 0}
  neckBase: {fileID: 0}
  rightHip: {fileID: 0}
  leftHip: {fileID: 0}
  meshRightShoulder: {fileID: 0}
  meshLeftShoulder: {fileID: 0}
  meshNeckBase: {fileID: 0}
  meshRightHip: {fileID: 0}
  meshLeftHip: {fileID: 0}
  rotationRatio: 0
--- !u!1001 &8143465205189417449
PrefabInstance:
  m_ObjectHideFlags: 0
  serializedVersion: 2
  m_Modification:
    m_TransformParent: {fileID: 8717072812861624220}
    m_Modifications:
    - target: {fileID: -4216859302048453862, guid: 86908eb9d97dd1a4395e72a8928f41d7,
        type: 3}
      propertyPath: m_LocalPosition.x
      value: 0
      objectReference: {fileID: 0}
    - target: {fileID: -4216859302048453862, guid: 86908eb9d97dd1a4395e72a8928f41d7,
        type: 3}
      propertyPath: m_LocalPosition.y
      value: 0
      objectReference: {fileID: 0}
    - target: {fileID: -4216859302048453862, guid: 86908eb9d97dd1a4395e72a8928f41d7,
        type: 3}
      propertyPath: m_LocalPosition.z
      value: 0
      objectReference: {fileID: 0}
    - target: {fileID: -4216859302048453862, guid: 86908eb9d97dd1a4395e72a8928f41d7,
        type: 3}
      propertyPath: m_LocalRotation.x
      value: 0
      objectReference: {fileID: 0}
    - target: {fileID: -4216859302048453862, guid: 86908eb9d97dd1a4395e72a8928f41d7,
        type: 3}
      propertyPath: m_LocalRotation.y
      value: 0
      objectReference: {fileID: 0}
    - target: {fileID: -4216859302048453862, guid: 86908eb9d97dd1a4395e72a8928f41d7,
        type: 3}
      propertyPath: m_LocalRotation.z
      value: 0
      objectReference: {fileID: 0}
    - target: {fileID: -4216859302048453862, guid: 86908eb9d97dd1a4395e72a8928f41d7,
        type: 3}
      propertyPath: m_LocalRotation.w
      value: 1
      objectReference: {fileID: 0}
    - target: {fileID: -4216859302048453862, guid: 86908eb9d97dd1a4395e72a8928f41d7,
        type: 3}
      propertyPath: m_RootOrder
      value: 0
      objectReference: {fileID: 0}
    - target: {fileID: -4216859302048453862, guid: 86908eb9d97dd1a4395e72a8928f41d7,
        type: 3}
      propertyPath: m_LocalEulerAnglesHint.x
      value: 0
      objectReference: {fileID: 0}
    - target: {fileID: -4216859302048453862, guid: 86908eb9d97dd1a4395e72a8928f41d7,
        type: 3}
      propertyPath: m_LocalEulerAnglesHint.y
      value: 0
      objectReference: {fileID: 0}
    - target: {fileID: -4216859302048453862, guid: 86908eb9d97dd1a4395e72a8928f41d7,
        type: 3}
      propertyPath: m_LocalEulerAnglesHint.z
      value: 0
      objectReference: {fileID: 0}
    - target: {fileID: -927199367670048503, guid: 86908eb9d97dd1a4395e72a8928f41d7,
        type: 3}
      propertyPath: m_Name
      value: body-box2
      objectReference: {fileID: 0}
    m_RemovedComponents: []
  m_SourcePrefab: {fileID: 100100000, guid: 86908eb9d97dd1a4395e72a8928f41d7, type: 3}
--- !u!4 &3781285066203214579 stripped
Transform:
  m_CorrespondingSourceObject: {fileID: -4216859302048453862, guid: 86908eb9d97dd1a4395e72a8928f41d7,
    type: 3}
  m_PrefabInstance: {fileID: 8143465205189417449}
  m_PrefabAsset: {fileID: 0}
